%YAML 1.1
%TAG !u! tag:unity3d.com,2011:
--- !u!21 &2100000
Material:
  serializedVersion: 6
  m_ObjectHideFlags: 0
  m_PrefabParentObject: {fileID: 0}
  m_PrefabInternal: {fileID: 0}
  m_Name: Localized Sobel
  m_Shader: {fileID: 4800000, guid: 51a55e4a34b84a144934daeabb33e389, type: 3}
  m_ShaderKeywords: _USEDEPTH_ON _USEFLATCOLOR_ON _USENORMALS_ON
  m_LightmapFlags: 0
  m_EnableInstancingVariants: 0
  m_DoubleSidedGI: 0
  m_CustomRenderQueue: -1
  stringTagMap: {}
  disabledShaderPasses: []
  m_SavedProperties:
    serializedVersion: 3
    m_TexEnvs:
    - _CameraDepthNormalsTexture:
        m_Texture: {fileID: 0}
        m_Scale: {x: 1, y: 1}
        m_Offset: {x: 0, y: 0}
    - _CameraDepthTexture:
        m_Texture: {fileID: 0}
        m_Scale: {x: 1, y: 1}
        m_Offset: {x: 0, y: 0}
    - _MainTex:
        m_Texture: {fileID: 0}
        m_Scale: {x: 1, y: 1}
        m_Offset: {x: 0, y: 0}
    - _Sample:
        m_Texture: {fileID: 0}
        m_Scale: {x: 1, y: 1}
        m_Offset: {x: 0, y: 0}
    - _ScreenTex:
        m_Texture: {fileID: 0}
        m_Scale: {x: 1, y: 1}
        m_Offset: {x: 0, y: 0}
    - _TextureSample1:
        m_Texture: {fileID: 0}
        m_Scale: {x: 1, y: 1}
        m_Offset: {x: 0, y: 0}
    - _texcoord:
        m_Texture: {fileID: 0}
        m_Scale: {x: 1, y: 1}
        m_Offset: {x: 0, y: 0}
    m_Floats:
    - _Blend: 0
    - _DepthIntensity: 1.2
    - _DepthMaxDistance: 1000
    - _DepthOverride: 100000
    - _EdgePower: 6.49
    - _EdgeSize: 1
    - _Hardness: 1
    - _Intensity: 1.45
    - _NormalIntensity: 0.8
    - _NormalMaxDistance: 1000
    - _UseDepth: 1
    - _UseFlatColor: 1
    - _UseNormals: 1
    - __dirty: 0
    m_Colors:
    - _EdgeColor: {r: 1, g: 1, b: 1, a: 1}
    - _SceneColor: {r: 0, g: 0, b: 0, a: 0}
