# Blender3D v249 OBJ File: RAINBOW.blend
# www.blender3d.org
mtllib RAINBOW_Light Winter Armor.mtl
v 0.169160 -0.001407 0.174378
v 0.232410 -0.003187 0.079579
v 0.209182 -0.000292 0.144986
v 0.107129 -0.003464 0.077025
v 0.119713 -0.003183 0.154347
v 0.118622 0.005187 0.009448
v 0.219045 0.005414 0.002271
v 0.118782 -0.004443 -0.002746
v 0.216712 -0.004316 -0.008566
v 0.111868 -0.003473 -0.073712
v 0.212862 -0.003223 -0.081170
v 0.159776 -0.002120 -0.111292
v -0.123633 1.482665 0.066150
v -0.143189 1.536521 0.010712
v -0.197235 1.530971 0.016363
v -0.162977 1.471450 0.075328
v -0.102415 1.391475 0.119733
v -0.119452 1.490179 0.074327
v -0.100016 1.402864 0.125902
v -0.082017 1.502424 0.071875
v -0.066437 1.413430 0.129523
v -0.074745 1.497359 0.064092
v -0.083054 1.525364 0.031801
v -0.138963 1.547084 0.015169
v -0.137602 1.556422 -0.066137
v -0.100375 1.552195 -0.018831
v -0.079472 1.556811 -0.103316
v -0.083081 1.518444 -0.138671
v -0.000000 1.548487 -0.129137
v 0.000000 1.506097 -0.154019
v -0.082433 1.508397 -0.131333
v 0.000000 1.496001 -0.148042
v -0.077804 1.412966 -0.153388
v -0.145098 1.518001 -0.116867
v -0.194621 1.419258 -0.146045
v -0.196355 1.534028 -0.058443
v -0.139095 1.543409 -0.064651
v 0.082433 1.508397 -0.131333
v 0.083081 1.518444 -0.138671
v 0.079472 1.556811 -0.103316
v 0.137602 1.556422 -0.066136
v 0.139095 1.543409 -0.064651
v 0.145098 1.517992 -0.116858
v 0.077804 1.412966 -0.153388
v -0.000000 1.412453 -0.165655
v -0.071380 1.326615 -0.157928
v -0.149142 1.317826 -0.154252
v -0.213197 1.306015 -0.116031
v -0.140004 1.232554 -0.132867
v -0.065443 1.243978 -0.163334
v 0.000000 1.330937 -0.163225
v 0.071380 1.326615 -0.157928
v 0.149141 1.317820 -0.154260
v 0.194624 1.419266 -0.146296
v 0.196359 1.534081 -0.058461
v 0.197248 1.531157 0.016421
v 0.143189 1.536520 0.010712
v 0.138963 1.547084 0.015169
v 0.100375 1.552195 -0.018831
v 0.083054 1.525364 0.031801
v 0.082016 1.502424 0.071875
v 0.074745 1.497359 0.064092
v 0.066437 1.413431 0.129519
v 0.100016 1.402864 0.125899
v 0.119452 1.490172 0.074317
v 0.123633 1.482659 0.066141
v 0.162986 1.471586 0.075567
v 0.102415 1.391476 0.119730
v 0.073817 1.373703 0.121381
v 0.075509 1.384028 0.127399
v 0.057775 1.404987 0.123895
v -0.000000 1.458262 0.109489
v -0.000000 1.412687 0.125142
v 0.058347 1.307329 0.146429
v 0.153925 1.295426 0.091785
v 0.163843 1.370352 0.084861
v -0.057775 1.404986 0.123899
v -0.000000 1.458262 0.109489
v -0.000000 1.412687 0.125142
v -0.058347 1.307329 0.146429
v 0.000000 1.311208 0.157976
v -0.061988 1.258420 0.151418
v 0.000000 1.265803 0.152316
v -0.057795 1.181091 0.152626
v 0.000000 1.189817 0.159145
v 0.000000 1.143321 0.156472
v -0.048412 1.142368 0.141367
v -0.115221 1.156471 0.115526
v -0.131513 1.237984 0.112194
v -0.153927 1.295469 0.091746
v -0.073817 1.373702 0.121385
v -0.075509 1.384028 0.127403
v -0.163846 1.370448 0.084651
v -0.183789 1.283647 0.026249
v -0.175180 1.230358 0.032588
v -0.185263 1.229354 -0.066162
v -0.131809 1.151458 -0.110822
v -0.065137 1.162457 -0.138031
v -0.000000 1.248425 -0.162100
v 0.065443 1.243978 -0.163334
v 0.140004 1.232553 -0.132867
v 0.213188 1.305893 -0.116137
v 0.185262 1.229353 -0.066162
v 0.183789 1.283653 0.026247
v 0.175180 1.230360 0.032587
v 0.131513 1.237984 0.112194
v 0.061988 1.258420 0.151418
v 0.000000 1.311208 0.157976
v 0.000000 1.265803 0.152316
v 0.057796 1.181091 0.152626
v 0.000000 1.189817 0.159145
v 0.000000 1.143321 0.156472
v 0.048412 1.142368 0.143095
v 0.115221 1.156471 0.115526
v 0.181935 1.133103 0.120524
v 0.202358 1.206303 0.117436
v 0.219050 1.196722 0.047143
v 0.205081 1.127071 0.047630
v 0.172766 1.153409 0.032696
v 0.207706 1.125953 0.036021
v 0.221531 1.195685 0.036007
v 0.233805 1.192547 -0.050278
v 0.217208 1.122058 -0.043455
v 0.162012 1.151000 -0.058696
v 0.131800 1.151318 -0.110870
v 0.065137 1.162457 -0.138031
v -0.000000 1.161993 -0.141387
v -0.000000 1.068140 -0.138896
v 0.094123 1.068379 -0.115577
v 0.120469 1.065031 -0.100452
v 0.139844 1.056085 -0.058725
v 0.203727 1.034522 -0.043364
v 0.182492 1.039997 0.039603
v 0.145838 1.058168 0.036550
v 0.180026 1.040568 0.051164
v 0.165022 1.043074 0.113542
v 0.111479 1.057852 0.108307
v 0.183854 1.013525 0.041458
v -0.202358 1.206303 0.117436
v -0.181935 1.133103 0.120524
v -0.165013 1.043074 0.113535
v -0.111479 1.057852 0.108307
v -0.046674 1.090786 0.148524
v -0.043651 1.093164 0.160071
v -0.045701 1.135565 0.150464
v 0.000000 1.135214 0.163590
v 0.000000 1.092391 0.159621
v 0.000000 1.090346 0.149838
v -0.000001 1.009007 0.147986
v -0.049117 1.012450 0.142810
v -0.094886 1.015658 0.117723
v -0.085217 0.906867 0.148080
v -0.190583 0.936763 0.064805
v -0.183854 1.013525 0.041458
v -0.145838 1.058168 0.036551
v -0.139844 1.056085 -0.058725
v -0.203727 1.034522 -0.043364
v -0.217208 1.122058 -0.043455
v -0.162012 1.151000 -0.058696
v -0.233805 1.192547 -0.050278
v -0.207704 1.125953 0.036021
v -0.221530 1.195684 0.036008
v -0.167413 1.015386 -0.063994
v -0.109177 1.015594 -0.125888
v -0.194522 0.938320 -0.059651
v -0.241547 0.940966 0.059395
v -0.244359 0.943460 -0.049736
v -0.255951 0.805202 -0.046655
v -0.209110 0.847048 -0.055792
v -0.114665 0.894715 -0.154067
v -0.106325 0.889507 -0.190567
v -0.101325 1.001706 -0.181465
v -0.000004 0.884002 -0.202311
v -0.000004 0.889982 -0.166612
v -0.000008 0.783941 -0.181639
v -0.118382 0.783941 -0.170337
v -0.162665 0.783941 -0.146178
v -0.216875 0.803836 -0.053738
v -0.205084 0.770299 -0.036351
v -0.248262 0.713049 -0.002827
v -0.244254 0.712477 0.044136
v -0.214490 0.809740 0.056562
v -0.126139 0.783941 0.152842
v -0.069542 0.783941 0.176519
v -0.000008 0.897229 0.151509
v -0.000011 0.783940 0.178741
v -0.080580 0.749420 0.151527
v -0.136417 0.749420 0.127745
v -0.196409 0.774834 0.054297
v -0.204904 0.705339 0.049788
v -0.209147 0.707760 -0.003920
v -0.165908 0.749420 -0.132361
v -0.121353 0.749420 -0.156575
v -0.000008 0.749419 -0.151574
v 0.121355 0.749420 -0.156603
v 0.118384 0.783942 -0.170368
v 0.114667 0.894715 -0.154086
v 0.106326 0.889508 -0.190590
v 0.109177 1.015594 -0.125889
v 0.101325 1.001706 -0.181467
v -0.000000 1.002302 -0.193633
v -0.000000 1.049263 -0.195123
v 0.088730 1.049487 -0.171517
v 0.167416 1.015385 -0.063997
v 0.199607 0.935762 0.053949
v 0.193682 0.928794 -0.056187
v 0.208577 0.866074 -0.055419
v 0.210941 0.857661 0.060910
v 0.085214 0.906866 0.148109
v 0.094886 1.015658 0.117726
v 0.049116 1.012450 0.142814
v -0.000008 0.897229 0.151509
v -0.000001 1.009007 0.147986
v 0.046674 1.090786 0.148524
v 0.045701 1.135565 0.152192
v 0.000000 1.135214 0.163590
v 0.043651 1.093164 0.160071
v 0.000000 1.090346 0.149838
v 0.000000 1.092391 0.159621
v -0.094123 1.068379 -0.115577
v -0.120469 1.065031 -0.100452
v -0.088730 1.049487 -0.171517
v 0.069532 0.783940 0.176565
v 0.126144 0.783941 0.152887
v 0.215606 0.783943 0.066343
v 0.217782 0.783943 -0.048427
v 0.162675 0.783942 -0.146205
v 0.165918 0.749421 -0.132386
v 0.077336 0.775302 -0.126094
v -0.000007 0.812863 -0.109958
v -0.077342 0.775302 -0.126071
v -0.146195 0.770859 -0.119223
v 0.199449 0.749422 -0.037852
v 0.196678 0.749421 0.054928
v 0.136424 0.749420 0.127783
v 0.080571 0.749418 0.151570
v 0.078299 0.786654 0.128189
v -0.000010 0.838349 0.128218
v -0.000013 0.749419 0.151745
v -0.000011 0.783940 0.178741
v -0.078308 0.786655 0.128152
v -0.000010 0.838349 0.128218
v -0.000013 0.749419 0.151745
v 0.146202 0.770859 -0.119244
v -0.219050 1.196721 0.047143
v -0.205079 1.127071 0.047630
v -0.172766 1.153408 0.032696
v -0.182492 1.039997 0.039603
v -0.180026 1.040568 0.051163
v -0.169160 -0.001407 0.174378
v -0.209180 -0.000292 0.144986
v -0.232407 -0.003187 0.079579
v -0.107132 -0.003463 0.077025
v -0.119716 -0.003182 0.154347
v -0.118623 0.005187 0.009449
v -0.219045 0.005414 0.002271
v -0.118782 -0.004443 -0.002746
v -0.216712 -0.004316 -0.008566
v -0.111868 -0.003473 -0.073712
v -0.212862 -0.003222 -0.081169
v -0.159776 -0.002120 -0.111292
v 0.197248 1.531157 0.016421
v 0.251421 1.518090 -0.052846
v 0.196359 1.534081 -0.058461
v 0.194624 1.419266 -0.146296
v 0.252687 1.423009 -0.116036
v 0.321420 1.499904 -0.052844
v 0.393280 1.450404 -0.101807
v 0.417031 1.482382 -0.027721
v 0.321420 1.499902 0.017146
v 0.406506 1.434847 0.036620
v 0.274093 1.427542 0.054359
v 0.251421 1.518098 0.017152
v 0.219159 1.463443 0.069070
v 0.162986 1.471586 0.075567
v 0.163843 1.370352 0.084861
v 0.248784 1.344548 0.052268
v 0.405018 1.362369 0.034416
v 0.488472 1.368317 0.033569
v 0.494647 1.429106 0.034606
v 0.500417 1.465159 -0.017667
v 0.460307 1.443811 -0.110588
v 0.456854 1.373354 -0.114820
v 0.389306 1.371680 -0.094388
v 0.264952 1.315680 -0.077860
v 0.213188 1.305893 -0.116137
v 0.183789 1.283653 0.026247
v 0.246460 1.302897 -0.009828
v 0.407739 1.340699 -0.027613
v 0.497426 1.345666 -0.026753
v 0.522781 1.375038 -0.082706
v 0.524395 1.428974 -0.079294
v 0.592021 1.426621 -0.066933
v 0.588370 1.451874 -0.000586
v 0.581263 1.420927 0.044361
v 0.575535 1.368835 0.041977
v 0.575521 1.344491 -0.022092
v 0.657988 1.368269 0.041799
v 0.659695 1.414640 0.039849
v 0.669070 1.449404 0.008592
v 0.682660 1.429772 -0.040478
v 0.711313 1.425099 0.015037
v 0.700737 1.396205 0.038323
v 0.699716 1.374828 0.017285
v 0.708955 1.360205 -0.008374
v 0.674516 1.333973 -0.007435
v 0.497426 1.345666 -0.026753
v 0.407739 1.340699 -0.027613
v 0.246460 1.302897 -0.009828
v 0.153925 1.295426 0.091785
v 0.183789 1.283653 0.026247
v 0.681627 1.362185 -0.056815
v 0.720889 1.409729 -0.015825
v 0.717286 1.376662 -0.026509
v 0.674516 1.333973 -0.007435
v 0.708955 1.360205 -0.008374
v 0.592021 1.365205 -0.074611
v 0.575521 1.344491 -0.022092
v 0.054939 1.507020 0.044133
v 0.071498 1.533007 -0.009410
v 0.049652 1.509897 0.006511
v 0.000000 1.489418 0.047830
v 0.000000 1.470353 0.076693
v -0.054939 1.507020 0.044133
v -0.049652 1.509897 0.006511
v -0.071498 1.533007 -0.009410
v -0.055270 1.546688 -0.062163
v 0.055270 1.546688 -0.062163
v -0.194621 1.419258 -0.146045
v -0.251422 1.518121 -0.052855
v -0.196355 1.534028 -0.058443
v -0.197235 1.530971 0.016363
v -0.251422 1.518121 0.017145
v -0.219148 1.463324 0.068853
v -0.162977 1.471450 0.075328
v -0.163846 1.370448 0.084651
v -0.248795 1.344668 0.052142
v -0.274094 1.427545 0.054376
v -0.321422 1.499942 0.017145
v -0.406474 1.434397 0.036833
v -0.417033 1.482422 -0.027721
v -0.321421 1.499942 -0.052855
v -0.393279 1.450423 -0.101841
v -0.252687 1.423005 -0.115999
v -0.213197 1.306015 -0.116031
v -0.264950 1.315655 -0.077874
v -0.389304 1.371664 -0.094419
v -0.456853 1.373345 -0.114843
v -0.460307 1.443821 -0.110610
v -0.500417 1.465162 -0.017667
v -0.494723 1.430125 0.034171
v -0.581263 1.420927 0.044363
v -0.588370 1.451877 -0.000586
v -0.592022 1.426623 -0.066936
v -0.524396 1.428975 -0.079297
v -0.522781 1.375037 -0.082709
v -0.497426 1.345664 -0.026753
v -0.592022 1.365204 -0.074614
v -0.681627 1.362183 -0.056817
v -0.682660 1.429774 -0.040480
v -0.669070 1.449406 0.008592
v -0.659695 1.414641 0.039850
v -0.657988 1.368268 0.041801
v -0.575535 1.368833 0.041979
v -0.488460 1.367528 0.033138
v -0.405021 1.362635 0.034611
v -0.407738 1.340665 -0.027612
v -0.497426 1.345664 -0.026753
v -0.575521 1.344488 -0.022093
v -0.674516 1.333971 -0.007436
v -0.708955 1.360204 -0.008375
v -0.699716 1.374828 0.017285
v -0.700737 1.396205 0.038324
v -0.711313 1.425100 0.015037
v -0.720889 1.409730 -0.015826
v -0.717286 1.376662 -0.026510
v -0.674516 1.333971 -0.007436
v -0.575521 1.344488 -0.022093
v -0.407738 1.340665 -0.027612
v -0.246458 1.302858 -0.009823
v -0.183789 1.283647 0.026249
v -0.708955 1.360204 -0.008375
v -0.153927 1.295469 0.091746
v -0.246458 1.302858 -0.009823
v -0.183789 1.283647 0.026249
v 0.162756 0.468789 0.090064
v 0.084249 0.457891 0.089876
v 0.107593 0.289801 0.051494
v 0.170398 0.298675 0.052735
v 0.219949 0.305058 -0.015821
v 0.223174 0.434818 -0.014458
v 0.189287 0.299565 -0.113455
v 0.160023 0.422164 -0.108377
v 0.100205 0.413636 -0.111102
v 0.106713 0.289699 -0.113981
v 0.035013 0.440900 -0.011319
v 0.062053 0.281101 -0.031578
v 0.103457 0.234349 -0.114628
v 0.191616 0.228491 -0.111152
v 0.221731 0.225574 -0.024204
v 0.191885 0.240832 0.057532
v 0.112208 0.241092 0.057090
v 0.062053 0.281101 -0.031578
v 0.035013 0.440900 -0.011319
v 0.039926 0.530757 -0.007212
v 0.062844 0.578891 0.117034
v 0.035226 0.682056 0.094730
v 0.112937 0.695573 0.131818
v 0.078299 0.786654 0.128189
v 0.136424 0.749420 0.127783
v 0.183891 0.697691 0.088015
v 0.196678 0.749421 0.054928
v 0.205799 0.681023 -0.001310
v 0.199449 0.749422 -0.037852
v 0.154519 0.684093 -0.107222
v 0.146202 0.770859 -0.119244
v 0.077336 0.775302 -0.126094
v 0.082213 0.685814 -0.113832
v 0.013718 0.741781 -0.059864
v -0.000116 0.774547 -0.070889
v -0.000007 0.812863 -0.109958
v 0.077975 0.229035 -0.022810
v 0.126516 0.204632 0.015637
v 0.181206 0.209183 0.016134
v 0.199124 0.204942 -0.053501
v 0.158815 0.201986 -0.095887
v 0.114410 0.197298 -0.081819
v 0.108269 0.200158 -0.031474
v 0.077975 0.229035 -0.022810
v 0.016580 0.786092 0.097129
v -0.000010 0.838349 0.128218
v -0.000012 0.804175 0.081689
v 0.013718 0.741781 -0.059864
v -0.000116 0.774547 -0.070889
v 0.020725 0.680458 -0.043027
v 0.108269 0.200158 -0.031474
v 0.020725 0.680458 -0.043027
v 0.090072 0.522111 -0.095738
v 0.155450 0.528899 -0.089922
v 0.213978 0.597176 -0.000048
v 0.160399 0.591684 0.116779
v 0.204471 0.518051 -0.015285
v 0.039926 0.530757 -0.007212
v -0.162756 0.468788 0.090065
v -0.170401 0.298674 0.052744
v -0.107589 0.289799 0.051503
v -0.219957 0.305058 -0.015819
v -0.223183 0.434818 -0.014458
v -0.189292 0.299566 -0.113462
v -0.160025 0.422165 -0.108385
v -0.100202 0.413637 -0.111110
v -0.106709 0.289700 -0.113988
v -0.035004 0.440899 -0.011318
v -0.062045 0.281101 -0.031577
v -0.103453 0.234350 -0.114634
v -0.191620 0.228492 -0.111158
v -0.221739 0.225575 -0.024201
v -0.191889 0.240831 0.057542
v -0.112205 0.241090 0.057100
v -0.062045 0.281101 -0.031577
v -0.084249 0.457891 0.089877
v -0.160394 0.591684 0.116763
v -0.062852 0.578891 0.117018
v -0.112938 0.695573 0.131787
v -0.204904 0.705339 0.049788
v -0.136417 0.749420 0.127745
v -0.078308 0.786655 0.128152
v -0.035243 0.682058 0.094708
v -0.039921 0.530757 -0.007212
v -0.035004 0.440899 -0.011318
v -0.077968 0.229035 -0.022807
v -0.126514 0.204632 0.015643
v -0.181209 0.209183 0.016140
v -0.199129 0.204942 -0.053501
v -0.158816 0.201986 -0.095892
v -0.114407 0.197298 -0.081822
v -0.108265 0.200157 -0.031472
v -0.077968 0.229035 -0.022807
v -0.016605 0.786092 0.097129
v -0.000010 0.838349 0.128218
v -0.000012 0.804175 0.081689
v -0.013739 0.741782 -0.059852
v -0.000116 0.774547 -0.070889
v -0.020756 0.680460 -0.043014
v -0.196409 0.774834 0.054297
v -0.213951 0.597174 -0.000049
v -0.209147 0.707760 -0.003920
v -0.154507 0.684092 -0.107191
v -0.205084 0.770299 -0.036351
v -0.146195 0.770859 -0.119223
v -0.077342 0.775302 -0.126071
v -0.082223 0.685814 -0.113799
v -0.013739 0.741782 -0.059852
v -0.000116 0.774547 -0.070889
v -0.000007 0.812863 -0.109958
v -0.020756 0.680460 -0.043014
v -0.090075 0.522111 -0.095732
v -0.155448 0.528899 -0.089916
v -0.204460 0.518050 -0.015284
v -0.039921 0.530757 -0.007212
v -0.108265 0.200157 -0.031472
v 0.722878 1.427512 0.060995
v 0.739577 1.397227 0.090167
v 0.740871 1.418076 0.084368
v 0.723976 1.395909 0.056228
v 0.700737 1.396205 0.038323
v 0.741932 1.386418 0.035111
v 0.753744 1.405712 0.056748
v 0.771445 1.412114 0.051190
v 0.770585 1.367142 0.014321
v 0.790539 1.391794 0.048014
v 0.783805 1.405841 0.058101
v 0.806774 1.389162 0.061814
v 0.804714 1.398844 0.071774
v 0.812716 1.378616 0.075567
v 0.810254 1.387144 0.085142
v 0.800501 1.368039 0.104713
v 0.801552 1.360646 0.098601
v 0.757342 1.400047 0.109056
v 0.756630 1.414478 0.110893
v 0.769339 1.402486 0.114903
v 0.770273 1.413437 0.118128
v 0.772372 1.401834 0.104589
v 0.759315 1.397252 0.083963
v 0.699716 1.374828 0.017285
v 0.708955 1.360205 -0.008374
v 0.745972 1.351498 -0.006584
v 0.779412 1.349489 -0.006214
v 0.796953 1.341517 -0.000436
v 0.804698 1.382088 0.052875
v 0.823596 1.390540 0.046228
v 0.803375 1.406875 0.033503
v 0.829370 1.370703 0.061247
v 0.814578 1.368239 0.060420
v 0.807567 1.331462 0.006593
v 0.824634 1.332186 0.009895
v 0.812076 1.348208 -0.005755
v 0.779645 1.363173 -0.016949
v 0.747315 1.366795 -0.027326
v 0.717286 1.376662 -0.026509
v 0.720889 1.409729 -0.015825
v 0.785168 1.404563 0.009994
v 0.803375 1.406875 0.033503
v 0.793193 1.421756 0.044480
v 0.777098 1.425238 0.036916
v 0.783805 1.405841 0.058101
v 0.771445 1.412114 0.051190
v 0.752977 1.423374 0.058291
v 0.711313 1.425099 0.015037
v 0.722878 1.427512 0.060995
v 0.760374 1.413751 0.081923
v 0.740871 1.418076 0.084368
v 0.773954 1.415796 0.104533
v 0.756630 1.414478 0.110893
v 0.770273 1.413437 0.118128
v 0.772372 1.401834 0.104589
v 0.759315 1.397252 0.083963
v 0.753744 1.405712 0.056748
v 0.700737 1.396205 0.038323
v 0.820970 1.408141 0.066574
v 0.824597 1.394478 0.056660
v 0.790539 1.391794 0.048014
v 0.806774 1.389162 0.061814
v 0.825342 1.373116 0.083217
v 0.834384 1.386365 0.092661
v 0.804714 1.398844 0.071774
v 0.810254 1.387144 0.085142
v 0.800501 1.368039 0.104713
v 0.812091 1.365607 0.109754
v 0.813290 1.358205 0.103782
v 0.812716 1.378616 0.075567
v 0.801552 1.360646 0.098601
v 0.823596 1.390540 0.046228
v 0.829370 1.370703 0.061247
v 0.822975 1.317035 0.037573
v 0.812539 1.321238 0.029697
v 0.811504 1.324799 0.057855
v 0.807093 1.344889 0.077520
v 0.818798 1.341252 0.083956
v 0.822550 1.321368 0.064587
v 0.822550 1.321368 0.064587
v 0.818798 1.341252 0.083956
v -0.760374 1.413751 0.081924
v -0.740871 1.418076 0.084370
v -0.722877 1.427513 0.060996
v -0.752977 1.423375 0.058292
v -0.711313 1.425100 0.015037
v -0.700737 1.396205 0.038324
v -0.777098 1.425239 0.036917
v -0.785168 1.404564 0.009994
v -0.720889 1.409730 -0.015826
v -0.779645 1.363173 -0.016950
v -0.747315 1.366795 -0.027327
v -0.717286 1.376662 -0.026510
v -0.708955 1.360204 -0.008375
v -0.745972 1.351498 -0.006585
v -0.779412 1.349489 -0.006215
v -0.770585 1.367142 0.014321
v -0.699716 1.374828 0.017285
v -0.741932 1.386418 0.035112
v -0.771445 1.412115 0.051191
v -0.790540 1.391793 0.048013
v -0.796953 1.341518 -0.000435
v -0.804699 1.382087 0.052874
v -0.823595 1.390538 0.046227
v -0.803374 1.406874 0.033502
v -0.783806 1.405840 0.058100
v -0.806775 1.389160 0.061813
v -0.804715 1.398841 0.071770
v -0.812718 1.378613 0.075563
v -0.810256 1.387141 0.085137
v -0.800506 1.368037 0.104707
v -0.801556 1.360645 0.098595
v -0.771445 1.412115 0.051191
v -0.783806 1.405840 0.058100
v -0.793192 1.421757 0.044481
v -0.803374 1.406874 0.033502
v -0.824596 1.394474 0.056658
v -0.820970 1.408135 0.066570
v -0.804715 1.398841 0.071770
v -0.824121 1.386361 0.092656
v -0.825344 1.373114 0.083213
v -0.806775 1.389160 0.061813
v -0.790540 1.391793 0.048013
v -0.812076 1.348211 -0.005753
v -0.824634 1.332191 0.009899
v -0.823595 1.390538 0.046227
v -0.829370 1.370701 0.061246
v -0.822977 1.317040 0.037576
v -0.822552 1.321371 0.064588
v -0.818801 1.341253 0.083954
v -0.753744 1.405712 0.056749
v -0.759315 1.397252 0.083964
v -0.772372 1.401834 0.104591
v -0.773953 1.415796 0.104535
v -0.756630 1.414478 0.110895
v -0.770273 1.413437 0.118131
v -0.753744 1.405712 0.056749
v -0.723975 1.395909 0.056229
v -0.759315 1.397252 0.083964
v -0.739576 1.397227 0.090169
v -0.722877 1.427513 0.060996
v -0.740871 1.418076 0.084370
v -0.757341 1.400047 0.109058
v -0.756630 1.414478 0.110895
v -0.769339 1.402486 0.114906
v -0.770273 1.413437 0.118131
v -0.772372 1.401834 0.104591
v -0.700737 1.396205 0.038324
v -0.810256 1.387141 0.085137
v -0.800506 1.368037 0.104707
v -0.812095 1.365605 0.109749
v -0.813294 1.358203 0.103777
v -0.812718 1.378613 0.075563
v -0.801556 1.360645 0.098595
v -0.829370 1.370701 0.061246
v -0.814579 1.368238 0.060418
v -0.807567 1.331466 0.006595
v -0.812541 1.321244 0.029699
v -0.811507 1.324803 0.057855
v -0.807098 1.344892 0.077517
v -0.818801 1.341253 0.083954
v -0.822552 1.321371 0.064588
v -0.000000 1.784033 0.004611
v 0.000000 1.763833 0.076796
v 0.049431 1.760433 0.060006
v 0.060577 1.773525 0.004707
v 0.041786 1.773574 -0.076507
v -0.000000 1.777147 -0.057555
v -0.000000 1.753808 -0.105508
v 0.074684 1.725794 -0.089629
v 0.090847 1.725444 -0.002196
v 0.060828 1.697430 0.085420
v 0.000000 1.729389 0.098764
v 0.000000 1.701541 0.104320
v 0.038244 1.760341 0.055766
v 0.061033 1.762310 0.005972
v 0.084724 1.727041 -0.000913
v 0.042003 1.762310 -0.072894
v 0.068074 1.727651 -0.084815
v 0.088471 1.646904 -0.008791
v 0.067983 1.671247 0.077616
v 0.070024 1.671209 0.080431
v 0.094418 1.646772 -0.009749
v 0.078848 1.647640 -0.088488
v -0.000000 1.699053 -0.124895
v -0.074684 1.725794 -0.089629
v -0.041786 1.773574 -0.076507
v -0.000000 1.777147 -0.057555
v -0.000000 1.784033 0.004611
v -0.060577 1.773525 0.004707
v -0.090847 1.725444 -0.002196
v -0.049431 1.760433 0.060006
v 0.000000 1.763833 0.076796
v 0.000000 1.729389 0.098764
v -0.060828 1.697430 0.085420
v -0.070024 1.671209 0.080431
v -0.094418 1.646771 -0.009750
v -0.078848 1.647640 -0.088488
v -0.000000 1.647053 -0.120080
v -0.000000 1.595317 -0.113558
v -0.000000 1.548487 -0.129137
v 0.078840 1.604638 -0.087751
v 0.087019 1.589573 -0.018305
v 0.077540 1.571239 0.024187
v 0.064584 1.622334 0.084776
v 0.061292 1.624245 0.084679
v 0.081045 1.597579 -0.017089
v 0.072342 1.633932 -0.083805
v 0.065828 1.602798 -0.067688
v 0.072232 1.568784 -0.008581
v 0.057036 1.577229 -0.057603
v 0.071498 1.533007 -0.009410
v 0.055270 1.546688 -0.062163
v 0.054939 1.507020 0.044133
v 0.053999 1.547834 0.068824
v 0.034873 1.540444 0.106771
v 0.000000 1.470353 0.076693
v 0.000000 1.543880 0.099808
v 0.038174 1.596339 0.111170
v 0.067231 1.556918 0.059040
v 0.083054 1.525364 0.031801
v 0.100375 1.552195 -0.018831
v 0.079472 1.556811 -0.103316
v -0.078840 1.604638 -0.087751
v -0.087019 1.589574 -0.018305
v -0.077142 1.573329 0.025329
v -0.064584 1.622334 0.084776
v -0.067983 1.671247 0.077615
v -0.084724 1.727041 -0.000913
v -0.061033 1.762310 0.005972
v -0.042003 1.762310 -0.072894
v -0.068074 1.727651 -0.084815
v -0.088471 1.646904 -0.008791
v -0.061292 1.624245 0.084679
v -0.038174 1.596339 0.111170
v -0.034873 1.540444 0.106771
v -0.053999 1.547834 0.068824
v -0.081045 1.597579 -0.017089
v -0.072342 1.633932 -0.083805
v -0.065828 1.602798 -0.067688
v -0.072231 1.568784 -0.008581
v -0.054939 1.507020 0.044133
v 0.000000 1.470353 0.076693
v 0.000000 1.543880 0.099808
v -0.000000 1.594746 0.114537
v -0.034558 1.539079 0.111451
v -0.067231 1.556918 0.059040
v -0.083054 1.525364 0.031801
v -0.100375 1.552195 -0.018831
v -0.079472 1.556811 -0.103316
v -0.038244 1.760341 0.055766
v 0.000000 1.701541 0.104320
v 0.000000 1.726715 0.095870
v 0.000000 1.759820 0.072265
v 0.000000 1.726715 0.095870
v 0.000000 1.759820 0.072265
v -0.057036 1.577229 -0.057603
v -0.071498 1.533007 -0.009410
v -0.055270 1.546688 -0.062163
v -0.000000 1.594746 0.114537
v 0.034558 1.539079 0.111451
v 0.074745 1.497359 0.064092
v -0.000000 1.458262 0.109489
v 0.000000 1.537294 0.112597
v 0.000000 1.537294 0.112597
v -0.000000 1.458262 0.109489
v -0.074745 1.497359 0.064092
v -0.199129 0.204942 -0.053501
v -0.182286 0.134099 0.020730
v -0.181209 0.209183 0.016140
v -0.137221 0.134376 0.022075
v -0.126514 0.204632 0.015643
v -0.114908 0.082641 -0.024320
v -0.108265 0.200157 -0.031472
v -0.125352 0.091214 -0.071949
v -0.114407 0.197298 -0.081822
v -0.158287 0.099177 -0.091173
v -0.158816 0.201986 -0.095892
v -0.159776 -0.002120 -0.111292
v -0.111868 -0.003473 -0.073712
v -0.118782 -0.004443 -0.002746
v -0.118623 0.005187 0.009449
v -0.107132 -0.003463 0.077025
v -0.131158 0.057894 0.082794
v -0.136645 0.102241 0.039811
v -0.191156 0.103553 0.037495
v -0.207022 0.088020 -0.030930
v -0.194078 0.091492 -0.073502
v -0.158816 0.201986 -0.095892
v -0.158287 0.099177 -0.091173
v -0.159776 -0.002120 -0.111292
v -0.212862 -0.003222 -0.081169
v -0.216712 -0.004316 -0.008566
v -0.219045 0.005414 0.002271
v -0.232407 -0.003187 0.079579
v -0.200751 0.060387 0.083321
v -0.160664 0.055640 0.152284
v -0.202540 0.042892 0.123795
v -0.209180 -0.000292 0.144986
v -0.169160 -0.001407 0.174378
v -0.119716 -0.003182 0.154347
v -0.120140 0.041687 0.129696
v 0.181206 0.209183 0.016134
v 0.137222 0.134376 0.022073
v 0.182286 0.134099 0.020730
v 0.199124 0.204942 -0.053501
v 0.207019 0.088020 -0.030932
v 0.194077 0.091492 -0.073501
v 0.158815 0.201986 -0.095887
v 0.158287 0.099177 -0.091171
v 0.159776 -0.002120 -0.111292
v 0.212862 -0.003223 -0.081170
v 0.216712 -0.004316 -0.008566
v 0.219045 0.005414 0.002271
v 0.232410 -0.003187 0.079579
v 0.200752 0.060388 0.083321
v 0.191156 0.103553 0.037495
v 0.136645 0.102241 0.039811
v 0.131158 0.057895 0.082795
v 0.114910 0.082641 -0.024322
v 0.126516 0.204632 0.015637
v 0.108269 0.200158 -0.031474
v 0.125354 0.091214 -0.071948
v 0.114410 0.197298 -0.081819
v 0.158287 0.099177 -0.091171
v 0.158815 0.201986 -0.095887
v 0.159776 -0.002120 -0.111292
v 0.111868 -0.003473 -0.073712
v 0.118782 -0.004443 -0.002746
v 0.118622 0.005187 0.009448
v 0.107129 -0.003464 0.077025
v 0.120139 0.041687 0.129696
v 0.160663 0.055644 0.152284
v 0.202540 0.042893 0.123795
v 0.209182 -0.000292 0.144986
v 0.169160 -0.001407 0.174378
v 0.119713 -0.003183 0.154347
v 0.000000 1.526329 0.061168
v 0.000000 1.531156 0.085071
v -0.021368 1.536030 0.085009
v 0.021368 1.536030 0.085009
v 0.040293 1.554932 0.027312
v 0.062641 1.578465 0.018750
v 0.048121 1.587948 0.064277
v 0.070723 1.632058 0.028441
v 0.055091 1.582982 0.008048
v 0.049652 1.509897 0.006511
v 0.055270 1.546688 -0.062163
v 0.053714 1.588877 -0.024225
v 0.072053 1.631124 -0.017661
v 0.072404 1.630878 -0.029809
v 0.074498 1.686684 -0.051836
v 0.048005 1.640847 -0.095087
v 0.042732 1.691386 -0.100099
v 0.066745 1.723743 -0.062510
v 0.071687 1.722633 0.001851
v 0.071896 1.678689 -0.013838
v 0.070185 1.698582 0.011143
v 0.053008 1.724835 0.072197
v 0.049341 1.751414 0.031168
v 0.068434 1.675986 0.036727
v 0.063282 1.676782 0.072865
v 0.037725 1.680587 0.092559
v 0.000000 1.696441 0.098435
v 0.000000 1.733243 0.087721
v -0.049326 1.724834 0.072197
v -0.037725 1.680587 0.092558
v -0.063282 1.676782 0.072863
v -0.068433 1.681949 0.036727
v -0.071687 1.722633 0.001851
v -0.049341 1.751414 0.031168
v -0.074498 1.686684 -0.051836
v -0.066745 1.723742 -0.062510
v -0.042732 1.691385 -0.100099
v -0.048005 1.640847 -0.095087
v -0.072404 1.630878 -0.029809
v -0.070722 1.632058 0.028441
v -0.061200 1.647302 0.056957
v -0.055820 1.630420 0.076667
v -0.048121 1.587948 0.064277
v -0.062641 1.578465 0.018750
v -0.028773 1.594812 0.092906
v -0.020666 1.625587 0.090527
v -0.006210 1.616167 0.117298
v -0.004971 1.644124 0.103321
v 0.006210 1.616167 0.117298
v 0.004931 1.644356 0.103190
v 0.020675 1.625563 0.090530
v 0.028773 1.594812 0.092906
v 0.055820 1.630420 0.076670
v 0.000000 1.590878 0.109494
v 0.000000 1.540044 0.095051
v -0.040293 1.554932 0.027313
v 0.000000 1.489418 0.047830
v -0.049652 1.509897 0.006511
v -0.055091 1.582982 0.008048
v -0.053714 1.588877 -0.024225
v -0.045083 1.588672 -0.072215
v -0.055270 1.546688 -0.062163
v 0.000000 1.678728 0.099293
v 0.061200 1.647301 0.056960
v 0.061393 1.632390 0.061726
v 0.045083 1.588672 -0.072215
v 0.070230 1.622234 0.004931
v 0.076422 1.676128 0.037125
v 0.070185 1.698582 0.011143
v 0.068434 1.675986 0.036727
v 0.078159 1.698712 0.011763
v 0.079362 1.622396 0.006284
v 0.079885 1.678831 -0.013440
v 0.071896 1.678689 -0.013838
v 0.072053 1.631124 -0.017661
v 0.080042 1.631266 -0.017262
v 0.080104 1.609335 0.001297
v 0.080784 1.618206 -0.022249
v 0.072795 1.618064 -0.022648
v 0.070230 1.622234 0.004931
v 0.070972 1.609174 -0.000056
v 0.068232 1.595031 0.034571
v 0.062788 1.597189 0.034568
v 0.070723 1.632058 0.028441
v 0.078711 1.632200 0.028839
v 0.067636 1.599530 0.036458
v 0.049898 1.578215 0.070786
v 0.054602 1.580556 0.073009
v 0.055328 1.576057 0.071168
v 0.032267 1.562451 0.089511
v 0.029748 1.561208 0.086426
v 0.027979 1.564609 0.086157
v 0.030140 1.565618 0.088957
v 0.027185 1.567697 0.095608
v 0.020687 1.564965 0.087227
v 0.025544 1.555829 0.088002
v 0.031230 1.558114 0.095303
v 0.022746 1.563737 0.097366
v 0.019345 1.562034 0.092265
v 0.021178 1.557083 0.093507
v 0.024371 1.558626 0.097279
v 0.063282 1.676782 0.072865
v 0.037725 1.680587 0.092559
v 0.054133 1.669956 0.084128
v 0.030897 1.672917 0.095163
v 0.000000 1.678728 0.099293
v 0.000005 1.664265 0.100561
v -0.030897 1.672917 0.095163
v -0.037725 1.680587 0.092558
v -0.054133 1.669955 0.084128
v -0.063282 1.676782 0.072863
v -0.057327 1.653740 0.069002
v -0.061200 1.647302 0.056957
v -0.057602 1.636384 0.075249
v -0.037600 1.651981 0.079482
v -0.033260 1.661360 0.082996
v -0.018450 1.660922 0.085907
v 0.000004 1.655336 0.096992
v 0.018450 1.660922 0.085907
v 0.033260 1.661360 0.082996
v 0.037600 1.651981 0.079482
v 0.057327 1.653740 0.069002
v 0.061200 1.647301 0.056960
v 0.057602 1.636384 0.075249
v 0.033022 1.648579 0.083397
v 0.015141 1.638692 0.088905
v 0.021100 1.647660 0.085059
v 0.012730 1.650499 0.084130
v 0.000000 1.649760 0.099320
v 0.019678 1.656135 0.085307
v 0.033580 1.655721 0.083572
v -0.033580 1.655721 0.083572
v -0.019678 1.656135 0.085307
v -0.012730 1.650499 0.084130
v -0.015140 1.638692 0.088905
v -0.021100 1.647660 0.085059
v -0.033022 1.648579 0.083397
v -0.055820 1.630420 0.076667
v -0.020666 1.625587 0.090527
v -0.004971 1.644124 0.103321
v 0.004931 1.644356 0.103190
v 0.020675 1.625563 0.090530
v 0.055820 1.630420 0.076670
v 0.061393 1.632390 0.061726
v 0.032016 1.668084 0.080047
v 0.017039 1.667575 0.081997
v 0.033022 1.648579 0.083397
v 0.021100 1.647660 0.085059
v 0.012730 1.650499 0.084130
v 0.037600 1.651981 0.079482
v -0.017039 1.667575 0.081997
v -0.021100 1.647660 0.085059
v -0.012730 1.650499 0.084130
v -0.033022 1.648579 0.083397
v -0.032016 1.668084 0.080047
v -0.037600 1.651981 0.079482
v -0.000000 1.680713 0.089098
v -0.035032 1.682134 0.100823
v 0.000000 1.683202 0.104840
v -0.036762 1.655390 0.105239
v 0.000005 1.651475 0.111537
v 0.036762 1.655390 0.105239
v 0.035033 1.682134 0.100823
v 0.032588 1.678752 0.084834
v 0.060074 1.679682 0.084343
v 0.050583 1.625089 0.090966
v 0.067394 1.676381 0.065169
v 0.050814 1.675908 0.068294
v 0.060443 1.674250 0.053706
v 0.066959 1.636536 0.068821
v 0.046377 1.623862 0.072778
v 0.058075 1.635162 0.053412
v -0.060073 1.679681 0.084343
v -0.032588 1.678752 0.084834
v -0.050814 1.675908 0.068294
v -0.067394 1.676381 0.065169
v -0.050583 1.625089 0.090966
v -0.010598 1.640673 0.109616
v -0.000000 1.643906 0.096951
v 0.010598 1.640673 0.109616
v 0.017962 1.622922 0.104374
v 0.015039 1.621662 0.086358
v 0.008004 1.635611 0.092682
v -0.008004 1.635611 0.092682
v -0.017962 1.622922 0.104374
v -0.046377 1.623862 0.072778
v -0.066959 1.636536 0.068821
v -0.060443 1.674250 0.053706
v -0.058075 1.635162 0.053412
v -0.015039 1.621662 0.086358
v 0.035033 1.682134 0.100823
v 0.000000 1.683202 0.104840
v -0.000000 1.680713 0.089098
v -0.035032 1.682134 0.100823
v -0.032588 1.678752 0.084834
v -0.060073 1.679681 0.084343
v -0.050814 1.675908 0.068294
v -0.067394 1.676381 0.065169
v -0.060443 1.674250 0.053706
v -0.066959 1.636536 0.068821
v -0.058075 1.635162 0.053412
v -0.046377 1.623862 0.072778
v -0.050583 1.625089 0.090966
v -0.017962 1.622922 0.104374
v -0.015039 1.621662 0.086358
v -0.008004 1.635611 0.092682
v -0.010598 1.640673 0.109616
v -0.000000 1.643906 0.096951
v 0.000005 1.651475 0.111537
v 0.010598 1.640673 0.109616
v 0.008004 1.635611 0.092682
v 0.017962 1.622922 0.104374
v 0.015039 1.621662 0.086358
v 0.046377 1.623862 0.072778
v 0.050583 1.625089 0.090966
v 0.066959 1.636536 0.068821
v 0.058075 1.635162 0.053412
v 0.060443 1.674250 0.053706
v 0.067394 1.676381 0.065169
v 0.050814 1.675908 0.068294
v 0.060074 1.679682 0.084343
v 0.032588 1.678752 0.084834
v -0.321422 1.499942 0.017145
v -0.251422 1.518121 0.017145
v -0.321421 1.499942 -0.052855
v -0.251422 1.518121 -0.052855
v 0.321420 1.499904 -0.052844
v 0.251421 1.518090 -0.052846
v 0.251421 1.518098 0.017152
v 0.321420 1.499902 0.017146
vt 0.766656 0.382988
vt 0.758988 0.361545
vt 0.809497 0.391547
vt 0.809375 0.324690
vt 0.762935 0.335272
vt 0.841448 0.330133
vt 0.848208 0.388425
vt 0.847730 0.329887
vt 0.853720 0.386859
vt 0.884257 0.327868
vt 0.890986 0.382799
vt 0.904974 0.353007
vt 0.560024 0.968910
vt 0.558080 0.937838
vt 0.613598 0.943552
vt 0.586721 0.918676
vt 0.651871 0.885551
vt 0.621103 0.947088
vt 0.657352 0.890086
vt 0.635736 0.956682
vt 0.673887 0.900403
vt 0.649619 0.962146
vt 0.603707 0.979362
vt 0.564982 0.973883
vt 0.489694 0.975802
vt 0.528242 1.000160
vt 0.426590 0.982590
vt 0.408269 0.959573
vt 0.359682 0.974543
vt 0.359682 0.954586
vt 0.409903 0.954844
vt 0.359682 0.949833
vt 0.407068 0.910743
vt 0.455013 0.944505
vt 0.469301 0.913705
vt 0.505598 0.939273
vt 0.489751 0.970502
vt 0.304507 0.955669
vt 0.307792 0.960399
vt 0.291122 0.980939
vt 0.231320 0.980756
vt 0.232090 0.972979
vt 0.264351 0.944505
vt 0.312295 0.910743
vt 0.359682 0.910501
vt 0.402311 0.859343
vt 0.439346 0.855206
vt 0.476233 0.849646
vt 0.444947 0.803508
vt 0.406010 0.808061
vt 0.359682 0.861378
vt 0.317052 0.859343
vt 0.280017 0.855206
vt 0.250063 0.913705
vt 0.213765 0.939273
vt 0.161284 0.937838
vt 0.159340 0.968910
vt 0.156858 0.976360
vt 0.191121 1.000160
vt 0.115656 0.979362
vt 0.080325 0.961025
vt 0.073742 0.965424
vt 0.041533 0.903467
vt 0.065314 0.887610
vt 0.099912 0.947088
vt 0.108242 0.941901
vt 0.132643 0.918676
vt 0.068822 0.883900
vt 0.046747 0.872559
vt 0.047988 0.880394
vt 0.032203 0.897941
vt 0.002567 0.930014
vt 0.002567 0.898217
vt 0.037031 0.844490
vt 0.095485 0.838839
vt 0.119104 0.878665
vt 0.681305 0.898460
vt 0.718341 0.927697
vt 0.716024 0.898217
vt 0.682906 0.841043
vt 0.716797 0.840536
vt 0.681303 0.816044
vt 0.716797 0.819160
vt 0.685379 0.779281
vt 0.716797 0.783389
vt 0.716797 0.761345
vt 0.688407 0.760897
vt 0.648819 0.768837
vt 0.639723 0.806998
vt 0.623477 0.838732
vt 0.675396 0.873579
vt 0.673606 0.880394
vt 0.606323 0.879597
vt 0.566727 0.827561
vt 0.572766 0.802474
vt 0.498498 0.802001
vt 0.453754 0.770281
vt 0.406951 0.775461
vt 0.359682 0.810980
vt 0.315830 0.808061
vt 0.274416 0.803508
vt 0.243130 0.849646
vt 0.223279 0.801518
vt 0.152637 0.827561
vt 0.144667 0.802474
vt 0.080357 0.806814
vt 0.037198 0.817336
vt 0.002567 0.840536
vt 0.002567 0.819160
vt 0.035636 0.779281
vt 0.002567 0.783389
vt 0.002567 0.764633
vt 0.033729 0.764411
vt 0.072737 0.770675
vt 0.100202 0.764620
vt 0.102273 0.793864
vt 0.139552 0.787895
vt 0.137915 0.760415
vt 0.146065 0.757545
vt 0.160589 0.754580
vt 0.161509 0.786633
vt 0.202821 0.787095
vt 0.202488 0.753810
vt 0.220381 0.756320
vt 0.267261 0.767804
vt 0.314890 0.775461
vt 0.360507 0.775243
vt 0.359682 0.726106
vt 0.291254 0.725392
vt 0.265274 0.719688
vt 0.226038 0.706900
vt 0.205875 0.714339
vt 0.157297 0.712857
vt 0.141794 0.706915
vt 0.134680 0.713126
vt 0.097940 0.714989
vt 0.068989 0.708696
vt 0.141997 0.695368
vt 0.617824 0.794919
vt 0.624172 0.760458
vt 0.624150 0.715095
vt 0.650240 0.707444
vt 0.690567 0.731349
vt 0.696071 0.735473
vt 0.695146 0.757847
vt 0.716797 0.757683
vt 0.716797 0.735110
vt 0.716797 0.731142
vt 0.716797 0.698267
vt 0.688269 0.699888
vt 0.656097 0.696373
vt 0.670622 0.650182
vt 0.594039 0.658458
vt 0.579018 0.695368
vt 0.579500 0.707881
vt 0.493326 0.706900
vt 0.514003 0.712326
vt 0.515764 0.753858
vt 0.498983 0.756320
vt 0.516798 0.790813
vt 0.555287 0.751458
vt 0.556809 0.790853
vt 0.496227 0.696245
vt 0.433519 0.695589
vt 0.498734 0.657539
vt 0.578016 0.646016
vt 0.516561 0.647191
vt 0.519166 0.582102
vt 0.502559 0.600151
vt 0.428463 0.630337
vt 0.410494 0.642010
vt 0.410674 0.694830
vt 0.359682 0.639393
vt 0.359682 0.628062
vt 0.359682 0.592313
vt 0.421262 0.592313
vt 0.447547 0.592313
vt 0.504817 0.581459
vt 0.511383 0.570127
vt 0.545749 0.542021
vt 0.575953 0.541795
vt 0.588081 0.593770
vt 0.653852 0.592313
vt 0.683877 0.592313
vt 0.716797 0.645645
vt 0.716797 0.592313
vt 0.673726 0.576060
vt 0.640865 0.576060
vt 0.587949 0.579566
vt 0.585048 0.535088
vt 0.541485 0.534409
vt 0.453994 0.575234
vt 0.427213 0.576060
vt 0.359682 0.576060
vt 0.292150 0.576060
vt 0.298101 0.592313
vt 0.288424 0.632814
vt 0.308869 0.642010
vt 0.290798 0.697240
vt 0.308689 0.694830
vt 0.359682 0.695111
vt 0.359682 0.717220
vt 0.305225 0.714848
vt 0.223136 0.696245
vt 0.137115 0.663785
vt 0.212665 0.660505
vt 0.210029 0.630977
vt 0.135275 0.627017
vt 0.048742 0.650182
vt 0.063266 0.696373
vt 0.031095 0.699888
vt 0.002567 0.645645
vt 0.002567 0.698267
vt 0.032325 0.735059
vt 0.028469 0.759003
vt 0.002567 0.759040
vt 0.027832 0.737895
vt 0.003019 0.734399
vt 0.002567 0.737523
vt 0.429761 0.723741
vt 0.449961 0.718863
vt 0.414138 0.714022
vt 0.035486 0.592313
vt 0.065512 0.592313
vt 0.133176 0.592313
vt 0.204557 0.592313
vt 0.271817 0.592313
vt 0.264544 0.576060
vt 0.302931 0.559049
vt 0.359682 0.558154
vt 0.416432 0.559049
vt 0.454186 0.556958
vt 0.199447 0.576060
vt 0.135928 0.576060
vt 0.078499 0.576060
vt 0.045637 0.576060
vt 0.050783 0.564262
vt 0.002567 0.550644
vt 0.002567 0.576060
vt 0.002567 0.592313
vt 0.668580 0.564262
vt 0.716797 0.550644
vt 0.716797 0.576060
vt 0.265178 0.556958
vt 0.581068 0.792920
vt 0.584926 0.756362
vt 0.574556 0.756196
vt 0.559353 0.713933
vt 0.587197 0.715638
vt 0.767416 0.869784
vt 0.728476 0.872561
vt 0.727301 0.843910
vt 0.729581 0.921666
vt 0.759923 0.915577
vt 0.801465 0.870807
vt 0.831769 0.906273
vt 0.842965 0.872054
vt 0.802701 0.848933
vt 0.836629 0.824319
vt 0.780181 0.799128
vt 0.775679 0.833415
vt 0.751768 0.803052
vt 0.728140 0.806407
vt 0.727891 0.775403
vt 0.776905 0.749873
vt 0.841952 0.771543
vt 0.883525 0.781507
vt 0.881681 0.829353
vt 0.885658 0.869304
vt 0.865028 0.905402
vt 0.868095 0.929771
vt 0.836525 0.938320
vt 0.775587 0.958744
vt 0.728127 0.962943
vt 0.726773 0.997953
vt 0.788581 0.984191
vt 0.855644 0.967719
vt 0.899130 0.958812
vt 0.902569 0.924765
vt 0.899144 0.901774
vt 0.933276 0.896167
vt 0.930416 0.862267
vt 0.925228 0.822702
vt 0.924248 0.784434
vt 0.932513 0.733735
vt 0.971775 0.781452
vt 0.971839 0.825788
vt 0.973051 0.856853
vt 0.974490 0.883868
vt 0.997029 0.858772
vt 0.996469 0.826800
vt 0.995755 0.785450
vt 0.995060 0.740916
vt 0.972936 0.738101
vt 0.895507 0.726500
vt 0.846071 0.718256
vt 0.780190 0.710433
vt 0.728716 0.736192
vt 0.729985 0.700073
vt 0.975587 0.916751
vt 0.997518 0.885267
vt 0.997936 0.907816
vt 0.976438 0.942159
vt 0.998530 0.939857
vt 0.937914 0.922694
vt 0.936812 0.951129
vt 0.720432 0.139720
vt 0.710069 0.147460
vt 0.726685 0.157266
vt 0.713270 0.179245
vt 0.728674 0.179317
vt 0.726388 0.201368
vt 0.710069 0.211174
vt 0.720432 0.218913
vt 0.698514 0.246207
vt 0.698514 0.112427
vt 0.765124 0.517898
vt 0.727811 0.516483
vt 0.727202 0.467369
vt 0.727637 0.545157
vt 0.774651 0.553956
vt 0.751814 0.585135
vt 0.728083 0.582607
vt 0.728916 0.613601
vt 0.778792 0.637405
vt 0.780347 0.588066
vt 0.800039 0.538174
vt 0.835881 0.560920
vt 0.840547 0.512994
vt 0.798705 0.515714
vt 0.828164 0.479186
vt 0.756036 0.472395
vt 0.730258 0.425722
vt 0.770185 0.428707
vt 0.831798 0.446992
vt 0.863647 0.454434
vt 0.861433 0.478895
vt 0.883310 0.514252
vt 0.880729 0.554317
vt 0.924482 0.559444
vt 0.928286 0.519723
vt 0.929962 0.485743
vt 0.895654 0.481331
vt 0.898276 0.458234
vt 0.897658 0.420540
vt 0.933671 0.459071
vt 0.971528 0.463696
vt 0.971579 0.496596
vt 0.971084 0.523645
vt 0.970958 0.554733
vt 0.972441 0.599044
vt 0.924838 0.597722
vt 0.884242 0.602070
vt 0.843042 0.613478
vt 0.855086 0.665184
vt 0.900511 0.656627
vt 0.937331 0.649380
vt 0.975114 0.642329
vt 0.997126 0.638743
vt 0.996266 0.594212
vt 0.995537 0.552863
vt 0.994981 0.520891
vt 0.994545 0.494394
vt 0.994176 0.471845
vt 0.971492 0.431890
vt 0.936772 0.425584
vt 0.847327 0.409286
vt 0.778453 0.396440
vt 0.731503 0.389014
vt 0.993651 0.439802
vt 0.729831 0.653947
vt 0.783451 0.676706
vt 0.729847 0.687179
vt 0.412473 0.131243
vt 0.408740 0.048953
vt 0.447268 0.131827
vt 0.443357 0.049540
vt 0.499095 0.046838
vt 0.507817 0.107960
vt 0.571604 0.041997
vt 0.580616 0.101782
vt 0.615088 0.101124
vt 0.621309 0.042123
vt 0.661451 0.121908
vt 0.661451 0.044168
vt 0.627099 0.016915
vt 0.573158 0.016895
vt 0.498434 0.016896
vt 0.449379 0.016928
vt 0.410357 0.016940
vt 0.341740 0.044219
vt 0.341740 0.121908
vt 0.341740 0.164208
vt 0.412778 0.190727
vt 0.401483 0.240111
vt 0.436987 0.243502
vt 0.427516 0.288362
vt 0.449022 0.267387
vt 0.470687 0.238566
vt 0.488956 0.260875
vt 0.512792 0.225735
vt 0.533163 0.256883
vt 0.571573 0.225794
vt 0.573848 0.266739
vt 0.600086 0.272559
vt 0.603927 0.230540
vt 0.661449 0.263172
vt 0.661449 0.278989
vt 0.661449 0.295456
vt 0.341740 0.016922
vt 0.404372 0.002091
vt 0.447593 0.002090
vt 0.527659 0.002084
vt 0.599909 0.002083
vt 0.640872 0.002084
vt 0.661451 0.002088
vt 0.661451 0.016922
vt 0.397724 0.290406
vt 0.401092 0.317322
vt 0.388000 0.299269
vt 0.341739 0.263172
vt 0.341738 0.278989
vt 0.341739 0.235030
vt 0.341740 0.002088
vt 0.661450 0.234685
vt 0.614804 0.153554
vt 0.573900 0.153195
vt 0.508293 0.185731
vt 0.450339 0.191080
vt 0.512522 0.148304
vt 0.661451 0.164208
vt 0.218793 0.048603
vt 0.256258 0.048018
vt 0.214554 0.131064
vt 0.156477 0.046461
vt 0.149644 0.107932
vt 0.085064 0.042404
vt 0.076933 0.102496
vt 0.044817 0.101852
vt 0.039598 0.042527
vt 0.001253 0.121921
vt 0.001258 0.044251
vt 0.034581 0.016436
vt 0.082906 0.016433
vt 0.155239 0.016433
vt 0.211852 0.016438
vt 0.254427 0.016440
vt 0.316614 0.044343
vt 0.251053 0.130472
vt 0.211421 0.190443
vt 0.249522 0.190078
vt 0.225136 0.243046
vt 0.171080 0.239585
vt 0.213122 0.267107
vt 0.234676 0.288198
vt 0.261200 0.239938
vt 0.316611 0.164627
vt 0.316611 0.121824
vt 0.316610 0.016437
vt 0.262748 0.001678
vt 0.214357 0.001666
vt 0.118037 0.001605
vt 0.058361 0.001600
vt 0.023301 0.001609
vt 0.001253 0.001648
vt 0.001250 0.016437
vt 0.264471 0.290507
vt 0.260160 0.317322
vt 0.273719 0.299551
vt 0.316630 0.265528
vt 0.316631 0.280422
vt 0.316625 0.236411
vt 0.170922 0.273230
vt 0.151049 0.186042
vt 0.144915 0.238703
vt 0.087105 0.227230
vt 0.128092 0.267560
vt 0.085281 0.268515
vt 0.058881 0.274422
vt 0.054960 0.232053
vt 0.001291 0.262156
vt 0.001293 0.280422
vt 0.001306 0.297313
vt 0.001281 0.233175
vt 0.044588 0.154462
vt 0.083422 0.154058
vt 0.145312 0.148520
vt 0.001253 0.164438
vt 0.316611 0.001648
vt 0.952099 0.338196
vt 0.976767 0.333582
vt 0.991657 0.295757
vt 0.958218 0.300646
vt 0.989276 0.275233
vt 0.940165 0.265612
vt 0.929358 0.308227
vt 0.910493 0.296386
vt 0.911358 0.236234
vt 0.877836 0.271748
vt 0.875203 0.296651
vt 0.847904 0.286569
vt 0.849173 0.301011
vt 0.829847 0.292791
vt 0.828950 0.306108
vt 0.803370 0.310138
vt 0.802734 0.300164
vt 0.944023 0.360631
vt 0.956659 0.376861
vt 0.935492 0.374872
vt 0.928634 0.385059
vt 0.922918 0.365949
vt 0.931316 0.337494
vt 0.982607 0.244108
vt 0.973319 0.214693
vt 0.927141 0.205773
vt 0.882141 0.189303
vt 0.845408 0.189349
vt 0.850784 0.265129
vt 0.852064 0.276515
vt 0.863493 0.278431
vt 0.828874 0.270436
vt 0.833198 0.261209
vt 0.816673 0.194756
vt 0.815007 0.182863
vt 0.844243 0.176120
vt 0.885123 0.172216
vt 0.935356 0.171654
vt 0.967441 0.168763
vt 0.967782 0.121389
vt 0.876950 0.109725
vt 0.851552 0.098726
vt 0.859945 0.072883
vt 0.909362 0.074721
vt 0.858016 0.059013
vt 0.900353 0.062576
vt 0.933612 0.054790
vt 0.975499 0.091321
vt 0.963873 0.050606
vt 0.926176 0.035632
vt 0.945783 0.031626
vt 0.912523 0.013023
vt 0.929940 0.007383
vt 0.916224 0.000792
vt 0.896145 0.018279
vt 0.908866 0.036022
vt 0.909944 0.049698
vt 0.997813 0.072969
vt 0.821549 0.066854
vt 0.818950 0.083242
vt 0.829745 0.096230
vt 0.817168 0.094872
vt 0.791825 0.075761
vt 0.793263 0.062119
vt 0.821233 0.054993
vt 0.797551 0.047633
vt 0.765406 0.041143
vt 0.772311 0.055319
vt 0.771724 0.068817
vt 0.790838 0.085862
vt 0.758924 0.070947
vt 0.824560 0.110678
vt 0.796763 0.120878
vt 0.787620 0.189979
vt 0.805712 0.211158
vt 0.803262 0.236231
vt 0.807604 0.257342
vt 0.790075 0.259095
vt 0.787279 0.233579
vt 0.771710 0.165902
vt 0.770003 0.126954
vt 0.147540 0.540297
vt 0.147199 0.504882
vt 0.220718 0.545305
vt 0.211155 0.500766
vt 0.282716 0.485590
vt 0.294331 0.524673
vt 0.322707 0.506035
vt 0.279039 0.451782
vt 0.210674 0.466060
vt 0.122804 0.464456
vt 0.105657 0.510773
vt 0.091955 0.473990
vt 0.160411 0.502007
vt 0.208295 0.493255
vt 0.209683 0.467427
vt 0.283676 0.477232
vt 0.289968 0.450803
vt 0.205414 0.410319
vt 0.126409 0.444735
vt 0.123712 0.445281
vt 0.206311 0.410031
vt 0.273925 0.396289
vt 0.322818 0.467261
vt 0.365958 0.449873
vt 0.361692 0.483613
vt 0.349396 0.522486
vt 0.422638 0.544400
vt 0.432977 0.500035
vt 0.434063 0.465342
vt 0.496851 0.505266
vt 0.495892 0.540670
vt 0.538284 0.511881
vt 0.521948 0.465272
vt 0.521375 0.446084
vt 0.439404 0.409399
vt 0.372039 0.394478
vt 0.322823 0.424860
vt 0.322819 0.380787
vt 0.322814 0.347625
vt 0.262951 0.365240
vt 0.206066 0.368675
vt 0.162753 0.364609
vt 0.112363 0.412309
vt 0.112738 0.413613
vt 0.206084 0.374467
vt 0.275204 0.386093
vt 0.255216 0.367802
vt 0.193711 0.356251
vt 0.241811 0.352140
vt 0.191923 0.343941
vt 0.244360 0.342699
vt 0.136919 0.336818
vt 0.116641 0.357465
vt 0.079283 0.360057
vt 0.102077 0.325936
vt 0.086444 0.361022
vt 0.083308 0.399666
vt 0.127332 0.361770
vt 0.145698 0.320161
vt 0.196700 0.322139
vt 0.263851 0.329807
vt 0.383554 0.363626
vt 0.440370 0.368053
vt 0.484502 0.366436
vt 0.533297 0.413316
vt 0.518688 0.445491
vt 0.435031 0.466726
vt 0.435967 0.492575
vt 0.360878 0.475239
vt 0.355048 0.448704
vt 0.440295 0.409701
vt 0.532900 0.414613
vt 0.562569 0.401182
vt 0.567284 0.361648
vt 0.529977 0.358405
vt 0.440251 0.373844
vt 0.370938 0.384261
vt 0.391243 0.366322
vt 0.452940 0.355846
vt 0.510063 0.337408
vt 0.545089 0.327135
vt 0.560108 0.362488
vt 0.589230 0.406179
vt 0.571958 0.361735
vt 0.519213 0.362522
vt 0.501576 0.320600
vt 0.450546 0.321688
vt 0.383424 0.328184
vt 0.483692 0.502162
vt 0.552626 0.475343
vt 0.524438 0.499882
vt 0.499484 0.505428
vt 0.119711 0.499017
vt 0.144563 0.504998
vt 0.404919 0.350897
vt 0.454943 0.343569
vt 0.402535 0.341412
vt 0.056563 0.404198
vt 0.074609 0.360062
vt 0.113732 0.321543
vt 0.036755 0.309601
vt 0.050144 0.363970
vt 0.596350 0.366070
vt 0.610686 0.311942
vt 0.533513 0.322540
vt 0.617542 0.435889
vt 0.586880 0.428434
vt 0.573760 0.463282
vt 0.633460 0.397058
vt 0.603686 0.379064
vt 0.667271 0.375288
vt 0.609433 0.362221
vt 0.657887 0.351291
vt 0.611764 0.344684
vt 0.652575 0.339354
vt 0.613597 0.328541
vt 0.711163 0.334311
vt 0.712433 0.353731
vt 0.710866 0.375274
vt 0.706450 0.380579
vt 0.715916 0.408569
vt 0.674132 0.411592
vt 0.648276 0.398749
vt 0.633481 0.439031
vt 0.625352 0.478816
vt 0.608662 0.503689
vt 0.557709 0.496264
vt 0.588598 0.514936
vt 0.636169 0.555291
vt 0.655794 0.533663
vt 0.665436 0.509295
vt 0.670727 0.501916
vt 0.691274 0.487803
vt 0.658498 0.449360
vt 0.691965 0.439283
vt 0.683485 0.458697
vt 0.709276 0.467273
vt 0.720667 0.452270
vt 0.726617 0.434337
vt 0.699603 0.422913
vt 0.711163 0.332285
vt 0.500000 0.464990
vt 0.459261 0.466974
vt 0.500000 0.433862
vt 0.540739 0.466974
vt 0.664647 0.523214
vt 0.711664 0.568896
vt 0.631949 0.584769
vt 0.691781 0.672931
vt 0.736496 0.577665
vt 0.739918 0.435793
vt 0.888479 0.507211
vt 0.825514 0.589109
vt 0.795182 0.671118
vt 0.818374 0.670640
vt 0.842457 0.780962
vt 0.931777 0.709909
vt 0.935670 0.807672
vt 0.817220 0.862855
vt 0.719506 0.846761
vt 0.787375 0.763451
vt 0.730438 0.800075
vt 0.608426 0.836811
vt 0.647654 0.878896
vt 0.675810 0.770154
vt 0.650213 0.763904
vt 0.574107 0.779175
vt 0.499976 0.803941
vt 0.501992 0.866435
vt 0.385107 0.836983
vt 0.422573 0.781941
vt 0.351991 0.773293
vt 0.326181 0.785713
vt 0.296412 0.856716
vt 0.360309 0.880887
vt 0.161529 0.778970
vt 0.206363 0.868824
vt 0.062338 0.810552
vt 0.068703 0.713481
vt 0.181626 0.670640
vt 0.304235 0.672931
vt 0.342695 0.706508
vt 0.366940 0.648936
vt 0.368051 0.584769
vt 0.288336 0.568896
vt 0.438642 0.578305
vt 0.444675 0.635721
vt 0.489254 0.617504
vt 0.491397 0.634411
vt 0.510746 0.617504
vt 0.508532 0.634968
vt 0.555332 0.635663
vt 0.561358 0.578305
vt 0.613364 0.643909
vt 0.500000 0.581764
vt 0.500000 0.480950
vt 0.335353 0.523214
vt 0.500000 0.347698
vt 0.260082 0.435793
vt 0.263504 0.577665
vt 0.174486 0.589109
vt 0.085601 0.588709
vt 0.111521 0.507211
vt 0.500257 0.777334
vt 0.656962 0.705747
vt 0.650207 0.670192
vt 0.914399 0.588709
vt 0.746445 0.653860
vt 0.930249 0.244341
vt 0.857060 0.211060
vt 0.861920 0.208158
vt 0.929693 0.236535
vt 0.890365 0.082392
vt 0.969547 0.177287
vt 0.975719 0.179710
vt 0.948467 0.054205
vt 0.943653 0.082821
vt 0.891253 0.054493
vt 0.939168 0.058145
vt 0.937720 0.050981
vt 0.926974 0.049906
vt 0.887348 0.046490
vt 0.824609 0.055437
vt 0.825661 0.059634
vt 0.843044 0.112786
vt 0.848938 0.116596
vt 0.823948 0.065170
vt 0.728911 0.051136
vt 0.726561 0.056891
vt 0.726025 0.045507
vt 0.658035 0.039174
vt 0.660624 0.036005
vt 0.658747 0.040056
vt 0.657079 0.047084
vt 0.642935 0.052025
vt 0.658168 0.043824
vt 0.649408 0.024722
vt 0.637542 0.033634
vt 0.636764 0.045782
vt 0.645022 0.039341
vt 0.639587 0.030754
vt 0.633709 0.036036
vt 0.660595 0.800799
vt 0.985160 0.811777
vt 0.985160 0.905883
vt 0.683130 0.525795
vt 0.985160 0.485533
vt 0.641355 0.896130
vt 0.354693 0.775575
vt 0.430446 0.214220
vt 0.168260 0.742352
vt 0.288158 0.877881
vt 0.008834 0.719723
vt 0.166220 0.331214
vt 0.364269 0.069668
vt 0.008828 0.317789
vt 0.898095 0.374462
vt 0.985160 0.315624
vt 0.804420 0.191936
vt 0.673161 0.055314
vt 0.842786 0.118281
vt 0.717721 0.963897
vt 0.858501 0.908628
vt 0.943716 0.936127
vt 0.699125 0.931136
vt 0.500341 0.953848
vt 0.498910 0.905544
vt 0.294449 0.931136
vt 0.268739 0.954682
vt 0.135073 0.914918
vt 0.059562 0.946573
vt 0.049374 0.797954
vt 0.002771 0.730183
vt 0.101512 0.650394
vt 0.206107 0.784573
vt 0.245964 0.855866
vt 0.357193 0.852537
vt 0.496787 0.810076
vt 0.636381 0.852537
vt 0.747610 0.855866
vt 0.787467 0.784573
vt 0.944201 0.797954
vt 0.992462 0.752470
vt 0.917794 0.636678
vt 0.742759 0.748105
vt 0.658516 0.654933
vt 0.657203 0.751732
vt 0.617282 0.773311
vt 0.496787 0.741532
vt 0.646420 0.816158
vt 0.748195 0.813013
vt 0.245379 0.813013
vt 0.347155 0.816158
vt 0.378414 0.771189
vt 0.335059 0.654933
vt 0.336371 0.751732
vt 0.248693 0.758717
vt 0.094752 0.630016
vt 0.327560 0.558766
vt 0.469621 0.554627
vt 0.526474 0.553645
vt 0.674264 0.558581
vt 0.852040 0.584624
vt 0.971131 0.653907
vt 0.531785 0.493476
vt 0.146850 0.036499
vt 0.197903 0.520321
vt 0.445737 0.012111
vt 0.639014 0.076793
vt 0.052691 0.122417
vt 0.999500 0.999500
vt 0.000500 0.000502
vt 0.999500 0.000499
vt 0.000500 0.999495
vt 0.999481 0.999508
vt 0.000519 0.999520
vt 0.999458 0.000480
vt 0.000521 0.000481
usemtl R6RLightWinter
s 1
f 3/1 1/2 2/3
f 2/3 1/2 4/4
f 4/4 1/2 5/5
f 2/3 4/4 6/6
f 2/3 6/6 7/7
f 6/6 8/8 7/7
f 7/7 8/8 9/9
f 9/9 8/8 10/10
f 11/11 9/9 10/10
f 11/11 10/10 12/12
f 14/13 15/14 13/15
f 13/15 15/14 16/16
f 13/15 16/16 17/17
f 18/18 13/15 17/17
f 17/17 19/19 18/18
f 18/18 19/19 20/20
f 21/21 20/20 19/19
f 22/22 20/20 21/21
f 20/20 22/22 23/23
f 23/23 24/24 20/20
f 20/20 24/24 18/18
f 13/15 18/18 24/24
f 24/24 14/13 13/15
f 14/13 24/24 25/25
f 24/24 26/26 25/25
f 23/23 26/26 24/24
f 27/27 25/25 26/26
f 25/25 27/27 28/28
f 29/29 28/28 27/27
f 30/30 28/28 29/29
f 31/31 28/28 30/30
f 30/30 32/32 31/31
f 32/32 33/33 31/31
f 31/31 33/33 34/34
f 33/33 35/35 34/34
f 34/34 35/35 36/36
f 34/34 36/36 37/37
f 15/14 37/37 36/36
f 15/14 14/13 37/37
f 25/25 37/37 14/13
f 37/37 25/25 28/28
f 28/28 31/31 37/37
f 34/34 37/37 31/31
f 32/32 30/30 38/38
f 39/39 38/38 30/30
f 39/39 30/30 29/29
f 39/39 29/29 40/40
f 40/40 41/41 39/39
f 41/41 42/42 39/39
f 38/38 39/39 42/42
f 42/42 43/43 38/38
f 44/44 38/38 43/43
f 44/44 32/32 38/38
f 45/45 32/32 44/44
f 32/32 45/45 33/33
f 46/46 33/33 45/45
f 46/46 47/47 33/33
f 33/33 47/47 35/35
f 47/47 48/48 35/35
f 49/49 48/48 47/47
f 49/49 47/47 50/50
f 47/47 46/46 50/50
f 50/50 46/46 51/51
f 45/45 51/51 46/46
f 51/51 45/45 52/52
f 44/44 52/52 45/45
f 53/53 52/52 44/44
f 53/53 44/44 54/54
f 54/54 44/44 43/43
f 55/55 54/54 43/43
f 55/55 43/43 42/42
f 42/42 56/56 55/55
f 42/42 57/57 56/56
f 42/42 41/41 57/57
f 58/58 57/57 41/41
f 59/59 58/58 41/41
f 41/41 40/40 59/59
f 59/59 60/60 58/58
f 58/58 60/60 61/61
f 62/62 61/61 60/60
f 61/61 62/62 63/63
f 63/63 64/64 61/61
f 64/64 65/65 61/61
f 58/58 61/61 65/65
f 65/65 66/66 58/58
f 57/57 58/58 66/66
f 56/56 57/57 66/66
f 56/56 66/66 67/67
f 67/67 66/66 68/68
f 66/66 65/65 68/68
f 64/64 68/68 65/65
f 68/68 64/64 69/69
f 69/69 64/64 70/70
f 64/64 63/63 70/70
f 63/63 71/71 70/70
f 71/71 63/63 62/62
f 62/62 72/72 71/71
f 71/71 72/72 73/73
f 71/71 73/73 74/74
f 74/74 69/69 71/71
f 70/70 71/71 69/69
f 74/74 68/68 69/69
f 75/75 68/68 74/74
f 75/75 76/76 68/68
f 67/67 68/68 76/76
f 21/21 77/77 22/22
f 78/78 22/22 77/77
f 78/78 77/77 79/79
f 79/79 77/77 80/80
f 79/79 80/80 81/81
f 82/82 81/81 80/80
f 82/82 83/83 81/81
f 84/84 83/83 82/82
f 84/84 85/85 83/83
f 84/84 86/86 85/85
f 87/87 86/86 84/84
f 88/88 87/87 84/84
f 88/88 84/84 82/82
f 88/88 82/82 89/89
f 90/90 89/89 82/82
f 90/90 82/82 80/80
f 17/17 90/90 80/80
f 17/17 80/80 91/91
f 91/91 80/80 77/77
f 77/77 92/92 91/91
f 77/77 21/21 92/92
f 21/21 19/19 92/92
f 19/19 91/91 92/92
f 19/19 17/17 91/91
f 17/17 16/16 93/93
f 93/93 90/90 17/17
f 90/90 94/94 89/89
f 89/89 94/94 95/95
f 96/96 95/95 94/94
f 94/94 48/48 96/96
f 96/96 48/48 49/49
f 49/49 97/97 96/96
f 97/97 49/49 98/98
f 49/49 50/50 98/98
f 98/98 50/50 99/99
f 50/50 51/51 99/99
f 51/51 100/100 99/99
f 52/52 100/100 51/51
f 52/52 53/53 100/100
f 53/53 101/101 100/100
f 102/102 101/101 53/53
f 53/53 54/54 102/102
f 102/102 103/103 101/101
f 102/102 104/104 103/103
f 105/105 103/103 104/104
f 104/104 106/106 105/105
f 104/104 75/75 106/106
f 106/106 75/75 107/107
f 107/107 75/75 74/74
f 108/108 107/107 74/74
f 74/74 73/73 108/108
f 109/109 107/107 108/108
f 109/109 110/110 107/107
f 111/111 110/110 109/109
f 112/112 110/110 111/111
f 112/112 113/113 110/110
f 113/113 114/114 110/110
f 110/110 114/114 107/107
f 107/107 114/114 106/106
f 114/114 115/115 106/106
f 116/116 106/106 115/115
f 106/106 116/116 105/105
f 117/117 105/105 116/116
f 117/117 116/116 115/115
f 118/118 117/117 115/115
f 118/118 119/119 117/117
f 105/105 117/117 119/119
f 119/119 120/120 105/105
f 121/121 105/105 120/120
f 105/105 121/121 103/103
f 122/122 103/103 121/121
f 120/120 122/122 121/121
f 123/123 122/122 120/120
f 123/123 124/124 122/122
f 103/103 122/122 124/124
f 125/125 103/103 124/124
f 125/125 101/101 103/103
f 101/101 125/125 126/126
f 100/100 101/101 126/126
f 100/100 126/126 99/99
f 99/99 126/126 127/127
f 98/98 99/99 127/127
f 127/127 128/128 98/98
f 128/128 127/127 126/126
f 128/128 126/126 129/129
f 125/125 129/129 126/126
f 130/130 129/129 125/125
f 131/131 130/130 125/125
f 125/125 124/124 131/131
f 124/124 123/123 131/131
f 132/132 131/131 123/123
f 123/123 133/133 132/132
f 133/133 123/123 120/120
f 120/120 119/119 133/133
f 134/134 133/133 119/119
f 119/119 118/118 134/134
f 135/135 134/134 118/118
f 135/135 118/118 115/115
f 135/135 115/115 136/136
f 115/115 114/114 136/136
f 137/137 136/136 114/114
f 136/136 137/137 135/135
f 134/134 135/135 137/137
f 134/134 137/137 138/138
f 138/138 131/131 134/134
f 131/131 132/132 134/134
f 133/133 134/134 132/132
f 139/139 89/89 95/95
f 89/89 139/139 140/140
f 140/140 88/88 89/89
f 88/88 140/140 141/141
f 141/141 142/142 88/88
f 142/142 143/143 88/88
f 143/143 87/87 88/88
f 143/143 144/144 87/87
f 145/145 87/87 144/144
f 87/87 145/145 86/86
f 146/146 86/86 145/145
f 145/145 144/144 146/146
f 144/144 147/147 146/146
f 144/144 143/143 147/147
f 148/148 147/147 143/143
f 143/143 149/149 148/148
f 150/150 149/149 143/143
f 142/142 150/150 143/143
f 151/151 150/150 142/142
f 150/150 151/151 152/152
f 152/152 151/151 153/153
f 153/153 151/151 154/154
f 142/142 154/154 151/151
f 142/142 155/155 154/154
f 156/156 154/154 155/155
f 157/157 156/156 155/155
f 156/156 157/157 158/158
f 158/158 159/159 156/156
f 159/159 97/97 156/156
f 96/96 97/97 159/159
f 160/160 96/96 159/159
f 159/159 158/158 160/160
f 160/160 158/158 161/161
f 160/160 161/161 162/162
f 95/95 162/162 161/161
f 162/162 95/95 96/96
f 96/96 160/160 162/162
f 163/163 153/153 154/154
f 154/154 156/156 163/163
f 163/163 156/156 164/164
f 164/164 165/165 163/163
f 153/153 163/163 165/165
f 165/165 166/166 153/153
f 166/166 165/165 167/167
f 166/166 167/167 168/168
f 167/167 169/169 168/168
f 167/167 165/165 169/169
f 169/169 165/165 170/170
f 165/165 164/164 170/170
f 171/171 170/170 164/164
f 164/164 172/172 171/171
f 173/173 171/171 172/172
f 170/170 171/171 173/173
f 173/173 174/174 170/170
f 170/170 174/174 175/175
f 176/176 170/170 175/175
f 170/170 176/176 177/177
f 170/170 177/177 169/169
f 177/177 178/178 169/169
f 168/168 169/169 178/178
f 168/168 178/178 179/179
f 168/168 179/179 180/180
f 181/181 168/168 180/180
f 181/181 166/166 168/168
f 181/181 182/182 166/166
f 182/182 153/153 166/166
f 183/183 153/153 182/182
f 183/183 152/152 153/153
f 152/152 183/183 184/184
f 185/185 152/152 184/184
f 150/150 152/152 185/185
f 149/149 150/150 185/185
f 185/185 184/184 186/186
f 186/186 184/184 187/187
f 184/184 188/188 187/187
f 183/183 188/188 184/184
f 188/188 183/183 182/182
f 188/188 182/182 189/189
f 181/181 189/189 182/182
f 190/190 189/189 181/181
f 181/181 191/191 190/190
f 181/181 180/180 191/191
f 180/180 179/179 191/191
f 178/178 192/192 179/179
f 177/177 192/192 178/178
f 177/177 176/176 192/192
f 176/176 193/193 192/192
f 193/193 176/176 175/175
f 193/193 175/175 194/194
f 175/175 195/195 194/194
f 196/196 195/195 175/175
f 197/197 196/196 175/175
f 174/174 197/197 175/175
f 174/174 173/173 197/197
f 198/198 197/197 173/173
f 197/197 198/198 199/199
f 200/200 199/199 198/198
f 198/198 173/173 200/200
f 200/200 173/173 201/201
f 173/173 172/172 201/201
f 172/172 202/202 201/201
f 200/200 201/201 202/202
f 202/202 203/203 200/200
f 203/203 129/129 200/200
f 199/199 200/200 129/129
f 199/199 129/129 130/130
f 199/199 130/130 131/131
f 131/131 204/204 199/199
f 131/131 138/138 204/204
f 205/205 204/204 138/138
f 204/204 205/205 206/206
f 206/206 199/199 204/204
f 199/199 206/206 197/197
f 206/206 207/207 197/197
f 206/206 208/208 207/207
f 208/208 206/206 205/205
f 205/205 209/209 208/208
f 210/210 209/209 205/205
f 210/210 205/205 138/138
f 138/138 137/137 210/210
f 211/211 210/210 137/137
f 210/210 211/211 209/209
f 209/209 211/211 212/212
f 211/211 213/213 212/212
f 213/213 211/211 214/214
f 214/214 211/211 137/137
f 114/114 214/214 137/137
f 113/113 214/214 114/114
f 113/113 215/215 214/214
f 215/215 113/113 216/216
f 112/112 216/216 113/113
f 217/217 215/215 216/216
f 217/217 214/214 215/215
f 214/214 217/217 218/218
f 213/213 214/214 218/218
f 219/219 218/218 217/217
f 219/219 217/217 216/216
f 202/202 128/128 203/203
f 129/129 203/203 128/128
f 98/98 128/128 220/220
f 98/98 220/220 97/97
f 220/220 221/221 97/97
f 221/221 156/156 97/97
f 221/221 164/164 156/156
f 220/220 164/164 221/221
f 172/172 164/164 220/220
f 220/220 222/222 172/172
f 222/222 220/220 128/128
f 128/128 202/202 222/222
f 202/202 172/172 222/222
f 209/209 212/212 223/223
f 224/224 209/209 223/223
f 209/209 224/224 208/208
f 208/208 224/224 225/225
f 207/207 208/208 225/225
f 207/207 225/225 226/226
f 226/226 227/227 207/207
f 227/227 197/197 207/207
f 196/196 197/197 227/227
f 196/196 227/227 228/228
f 195/195 196/196 228/228
f 228/228 229/229 195/195
f 195/195 229/229 194/194
f 194/194 229/229 230/230
f 231/231 194/194 230/230
f 231/231 193/193 194/194
f 231/231 192/192 193/193
f 231/231 232/232 192/192
f 232/232 179/179 192/192
f 228/228 227/227 226/226
f 228/228 226/226 233/233
f 226/226 234/234 233/233
f 226/226 225/225 234/234
f 225/225 235/235 234/234
f 224/224 235/235 225/225
f 235/235 224/224 223/223
f 235/235 223/223 236/236
f 237/237 235/235 236/236
f 237/237 236/236 238/238
f 238/238 236/236 239/239
f 240/240 239/239 236/236
f 223/223 240/240 236/236
f 223/223 212/212 240/240
f 188/188 241/241 187/187
f 187/187 241/241 242/242
f 187/187 242/242 243/243
f 243/243 186/186 187/187
f 244/244 229/229 228/228
f 233/233 244/244 228/228
f 95/95 245/245 139/139
f 139/139 245/245 140/140
f 245/245 246/246 140/140
f 247/247 246/246 245/245
f 245/245 95/95 247/247
f 161/161 247/247 95/95
f 247/247 161/161 248/248
f 248/248 155/155 247/247
f 246/246 247/247 155/155
f 155/155 249/249 246/246
f 246/246 249/249 140/140
f 140/140 249/249 141/141
f 142/142 141/141 249/249
f 249/249 155/155 142/142
f 155/155 248/248 157/157
f 248/248 158/158 157/157
f 158/158 248/248 161/161
f 251/1 252/3 250/2
f 250/2 252/3 253/4
f 250/2 253/4 254/5
f 253/4 252/3 255/6
f 255/6 252/3 256/7
f 257/8 255/6 256/7
f 257/8 256/7 258/9
f 257/8 258/9 259/10
f 258/9 260/11 259/10
f 259/10 260/11 261/12
f 263/250 264/251 262/252
f 263/250 265/253 264/251
f 263/250 266/254 265/253
f 267/255 266/254 263/250
f 268/256 266/254 267/255
f 268/256 267/255 269/257
f 267/255 270/258 269/257
f 269/257 270/258 271/259
f 272/260 271/259 270/258
f 270/258 273/261 272/260
f 273/261 274/262 272/260
f 274/262 273/261 262/252
f 273/261 263/250 262/252
f 262/252 275/263 274/262
f 274/262 275/263 276/264
f 276/264 277/265 274/262
f 274/262 277/265 272/260
f 272/260 277/265 278/266
f 271/259 272/260 278/266
f 271/259 278/266 279/267
f 271/259 279/267 280/268
f 280/268 281/269 271/259
f 271/259 281/269 269/257
f 269/257 281/269 282/270
f 282/270 268/256 269/257
f 268/256 282/270 283/271
f 268/256 283/271 284/272
f 268/256 284/272 266/254
f 285/273 266/254 284/272
f 286/274 266/254 285/273
f 266/254 286/274 265/253
f 286/274 285/273 287/275
f 287/275 285/273 288/276
f 289/277 288/276 285/273
f 285/273 284/272 289/277
f 284/272 283/271 289/277
f 283/271 290/278 289/277
f 291/279 290/278 283/271
f 282/270 291/279 283/271
f 282/270 292/280 291/279
f 282/270 281/269 292/280
f 292/280 281/269 293/281
f 294/282 293/281 281/269
f 281/269 295/283 294/282
f 281/269 280/268 295/283
f 280/268 296/284 295/283
f 280/268 279/267 296/284
f 279/267 297/285 296/284
f 297/285 298/286 296/284
f 296/284 298/286 295/283
f 295/283 298/286 299/287
f 295/283 299/287 294/282
f 294/282 299/287 300/288
f 294/282 300/288 293/281
f 293/281 300/288 301/289
f 302/290 301/289 300/288
f 300/288 303/291 302/290
f 303/291 300/288 299/287
f 303/291 299/287 304/292
f 298/286 304/292 299/287
f 298/286 305/293 304/292
f 305/293 298/286 306/294
f 306/294 298/286 297/285
f 279/267 307/295 297/285
f 307/295 279/267 278/266
f 308/296 307/295 278/266
f 278/266 277/265 308/296
f 309/297 308/296 277/265
f 309/297 277/265 310/298
f 277/265 276/264 310/298
f 311/299 309/297 310/298
f 312/300 293/281 301/289
f 313/301 312/300 301/289
f 301/289 302/290 313/301
f 312/300 313/301 314/302
f 314/302 315/303 312/300
f 315/303 314/302 316/304
f 312/300 315/303 317/305
f 293/281 312/300 317/305
f 292/280 293/281 317/305
f 292/280 317/305 291/279
f 291/279 317/305 290/278
f 317/305 318/306 290/278
f 315/303 318/306 317/305
f 320/307 321/308 319/309
f 321/308 322/310 319/309
f 319/309 322/310 323/311
f 322/310 324/312 323/311
f 322/310 325/313 324/312
f 325/313 326/314 324/312
f 327/315 326/314 325/313
f 320/307 328/316 321/308
f 330/317 331/318 329/319
f 331/318 330/317 332/320
f 330/317 333/321 332/320
f 333/321 334/322 332/320
f 335/323 332/320 334/322
f 335/323 334/322 336/324
f 337/325 336/324 334/322
f 337/325 334/322 338/326
f 334/322 333/321 338/326
f 339/327 338/326 333/321
f 338/326 339/327 340/328
f 339/327 341/329 340/328
f 339/327 342/330 341/329
f 342/330 343/331 341/329
f 344/332 343/331 342/330
f 330/317 344/332 342/330
f 329/319 344/332 330/317
f 345/333 344/332 329/319
f 346/334 344/332 345/333
f 344/332 346/334 347/335
f 347/335 343/331 344/332
f 348/336 343/331 347/335
f 349/337 343/331 348/336
f 343/331 349/337 341/329
f 350/338 341/329 349/337
f 350/338 340/328 341/329
f 350/338 351/339 340/328
f 351/339 350/338 352/340
f 352/340 350/338 353/341
f 354/342 353/341 350/338
f 350/338 355/343 354/342
f 350/338 349/337 355/343
f 355/343 349/337 356/344
f 356/344 349/337 348/336
f 357/345 356/344 348/336
f 358/346 356/344 357/345
f 358/346 355/343 356/344
f 354/342 355/343 358/346
f 359/347 354/342 358/346
f 354/342 359/347 360/348
f 361/349 354/342 360/348
f 361/349 353/341 354/342
f 362/350 353/341 361/349
f 362/350 352/340 353/341
f 363/351 352/340 362/350
f 363/351 364/352 352/340
f 364/352 351/339 352/340
f 365/353 351/339 364/352
f 365/353 340/328 351/339
f 366/354 340/328 365/353
f 338/326 340/328 366/354
f 337/325 338/326 366/354
f 337/325 366/354 367/355
f 368/356 367/355 366/354
f 365/353 368/356 366/354
f 368/356 365/353 369/357
f 369/357 365/353 364/352
f 363/351 369/357 364/352
f 363/351 370/358 369/357
f 363/351 371/359 370/358
f 371/359 363/351 372/360
f 372/360 363/351 362/350
f 362/350 373/361 372/360
f 361/349 373/361 362/350
f 373/361 361/349 374/362
f 360/348 374/362 361/349
f 374/362 360/348 375/363
f 359/347 375/363 360/348
f 375/363 359/347 376/364
f 377/365 376/364 359/347
f 377/365 359/347 358/346
f 378/366 377/365 358/346
f 378/366 358/346 357/345
f 357/345 348/336 379/367
f 348/336 347/335 379/367
f 347/335 346/334 379/367
f 380/368 379/367 346/334
f 380/368 346/334 381/369
f 346/334 345/333 381/369
f 376/364 377/365 382/370
f 336/324 337/325 383/371
f 337/325 384/372 383/371
f 367/355 384/372 337/325
f 383/371 384/372 385/373
f 387/374 388/375 386/376
f 388/375 389/377 386/376
f 386/376 389/377 390/378
f 391/379 386/376 390/378
f 392/380 391/379 390/378
f 393/381 391/379 392/380
f 394/382 393/381 392/380
f 394/382 392/380 395/383
f 394/382 395/383 396/384
f 395/383 397/385 396/384
f 398/386 397/385 395/383
f 399/387 398/386 395/383
f 392/380 399/387 395/383
f 390/378 399/387 392/380
f 390/378 400/388 399/387
f 401/389 400/388 390/378
f 389/377 401/389 390/378
f 401/389 389/377 402/390
f 402/390 389/377 388/375
f 403/391 402/390 388/375
f 387/374 403/391 388/375
f 387/374 404/392 403/391
f 387/374 405/393 404/392
f 406/394 405/393 387/374
f 405/393 406/394 407/395
f 406/394 408/396 407/395
f 407/395 408/396 409/397
f 409/397 408/396 410/398
f 408/396 411/399 410/398
f 411/399 412/400 410/398
f 412/400 411/399 413/401
f 414/402 412/400 413/401
f 413/401 415/403 414/402
f 416/404 414/402 415/403
f 417/405 416/404 415/403
f 417/405 415/403 418/406
f 417/405 418/406 419/407
f 417/405 419/407 420/408
f 417/405 420/408 421/409
f 422/410 402/390 403/391
f 422/410 423/411 402/390
f 401/389 402/390 423/411
f 424/412 401/389 423/411
f 424/412 400/388 401/389
f 424/412 425/413 400/388
f 400/388 425/413 399/387
f 425/413 426/414 399/387
f 399/387 426/414 398/386
f 398/386 426/414 427/415
f 427/415 428/416 398/386
f 428/416 429/417 398/386
f 429/417 397/385 398/386
f 407/395 409/397 430/418
f 430/418 409/397 431/419
f 432/420 430/418 431/419
f 430/418 432/420 433/421
f 433/421 432/420 434/422
f 433/421 435/423 430/418
f 430/418 435/423 407/395
f 435/423 405/393 407/395
f 436/424 423/411 422/410
f 418/406 437/425 419/407
f 437/425 418/406 438/426
f 418/406 439/427 438/426
f 418/406 415/403 439/427
f 415/403 440/428 439/427
f 415/403 413/401 440/428
f 411/399 440/428 413/401
f 411/399 441/429 440/428
f 411/399 408/396 441/429
f 441/429 408/396 406/394
f 406/394 387/374 441/429
f 441/429 387/374 386/376
f 441/429 386/376 442/430
f 441/429 442/430 440/428
f 439/427 440/428 442/430
f 442/430 391/379 439/427
f 391/379 393/381 439/427
f 439/427 393/381 438/426
f 393/381 394/382 438/426
f 394/382 396/384 438/426
f 438/426 396/384 443/431
f 443/431 437/425 438/426
f 391/379 442/430 386/376
f 445/432 446/433 444/434
f 445/432 444/434 447/435
f 444/434 448/436 447/435
f 448/436 449/437 447/435
f 448/436 450/438 449/437
f 450/438 451/439 449/437
f 449/437 451/439 452/440
f 452/440 451/439 453/441
f 454/442 452/440 453/441
f 454/442 455/443 452/440
f 455/443 456/444 452/440
f 456/444 449/437 452/440
f 456/444 447/435 449/437
f 457/445 447/435 456/444
f 457/445 458/446 447/435
f 458/446 445/432 447/435
f 445/432 458/446 459/447
f 445/432 459/447 446/433
f 459/447 460/448 446/433
f 460/448 461/449 446/433
f 446/433 461/449 444/434
f 461/449 462/450 444/434
f 461/449 463/451 462/450
f 464/452 462/450 463/451
f 464/452 465/453 462/450
f 465/453 464/452 466/454
f 464/452 467/455 466/454
f 464/452 468/456 467/455
f 464/452 463/451 468/456
f 463/451 469/457 468/456
f 469/457 463/451 461/449
f 469/457 461/449 470/458
f 470/458 461/449 460/448
f 459/447 471/459 460/448
f 472/460 471/459 459/447
f 459/447 458/446 472/460
f 458/446 473/461 472/460
f 457/445 473/461 458/446
f 474/462 473/461 457/445
f 474/462 457/445 456/444
f 475/463 474/462 456/444
f 475/463 456/444 455/443
f 475/463 455/443 476/464
f 477/465 476/464 455/443
f 478/466 477/465 455/443
f 454/442 478/466 455/443
f 467/455 468/456 479/467
f 467/455 479/467 480/468
f 479/467 481/469 480/468
f 481/469 479/467 482/470
f 481/469 482/470 483/471
f 484/472 482/470 479/467
f 484/472 479/467 468/456
f 469/457 484/472 468/456
f 485/473 465/453 466/454
f 462/450 465/453 486/474
f 486/474 465/453 487/475
f 487/475 488/476 486/474
f 488/476 487/475 489/477
f 489/477 490/478 488/476
f 490/478 491/479 488/476
f 488/476 491/479 492/480
f 492/480 491/479 493/481
f 493/481 491/479 494/482
f 494/482 491/479 495/483
f 496/484 492/480 493/481
f 492/480 496/484 497/485
f 498/486 492/480 497/485
f 488/476 492/480 498/486
f 486/474 488/476 498/486
f 486/474 498/486 499/487
f 499/487 462/450 486/474
f 444/434 462/450 499/487
f 499/487 448/436 444/434
f 448/436 499/487 498/486
f 450/438 448/436 498/486
f 450/438 498/486 497/485
f 451/439 450/438 497/485
f 453/441 451/439 497/485
f 453/441 497/485 500/488
f 496/484 500/488 497/485
f 472/460 501/489 471/459
f 503/490 504/491 502/492
f 502/492 505/493 503/490
f 505/493 502/492 506/494
f 506/494 507/495 505/493
f 507/495 508/496 505/493
f 507/495 509/497 508/496
f 510/498 509/497 507/495
f 510/498 511/499 509/497
f 511/499 512/500 509/497
f 512/500 511/499 513/501
f 512/500 513/501 514/502
f 514/502 513/501 515/503
f 514/502 515/503 516/504
f 516/504 515/503 517/505
f 517/505 515/503 518/506
f 519/507 504/491 503/490
f 519/507 520/508 504/491
f 520/508 519/507 521/509
f 521/509 522/510 520/508
f 522/510 521/509 523/511
f 523/511 521/509 519/507
f 503/490 523/511 519/507
f 503/490 524/512 523/511
f 505/493 524/512 503/490
f 505/493 508/496 524/512
f 506/494 525/513 507/495
f 525/513 510/498 507/495
f 525/513 526/514 510/498
f 526/514 527/515 510/498
f 527/515 528/516 510/498
f 528/516 511/499 510/498
f 511/499 528/516 529/517
f 511/499 529/517 530/518
f 530/518 531/519 511/499
f 532/520 511/499 531/519
f 531/519 530/518 533/521
f 534/522 533/521 530/518
f 530/518 535/523 534/522
f 530/518 529/517 535/523
f 529/517 536/524 535/523
f 529/517 537/525 536/524
f 528/516 537/525 529/517
f 528/516 538/526 537/525
f 538/526 528/516 527/515
f 527/515 539/527 538/526
f 539/527 527/515 526/514
f 526/514 540/528 539/527
f 541/529 539/527 540/528
f 541/529 538/526 539/527
f 542/530 538/526 541/529
f 537/525 538/526 542/530
f 543/531 537/525 542/530
f 544/532 543/531 542/530
f 545/533 544/532 542/530
f 546/534 544/532 545/533
f 545/533 547/535 546/534
f 547/535 545/533 548/536
f 549/537 548/536 545/533
f 545/533 542/530 549/537
f 549/537 542/530 541/529
f 549/537 550/538 548/536
f 550/538 551/539 548/536
f 550/538 552/540 551/539
f 551/539 552/540 553/541
f 552/540 554/542 553/541
f 555/543 553/541 554/542
f 556/544 553/541 555/543
f 553/541 556/544 551/539
f 557/545 551/539 556/544
f 551/539 557/545 558/546
f 558/546 548/536 551/539
f 547/535 548/536 558/546
f 549/537 559/547 550/538
f 544/532 546/534 560/548
f 544/532 560/548 561/549
f 544/532 561/549 543/531
f 562/550 543/531 561/549
f 562/550 561/549 563/551
f 563/551 561/549 564/552
f 560/548 564/552 561/549
f 560/548 565/553 564/552
f 560/548 566/554 565/553
f 566/554 560/548 546/534
f 567/555 565/553 566/554
f 565/553 567/555 568/556
f 568/556 569/557 565/553
f 565/553 569/557 564/552
f 569/557 570/558 564/552
f 571/559 564/552 570/558
f 563/551 564/552 571/559
f 570/558 572/560 571/559
f 572/560 570/558 569/557
f 569/557 568/556 572/560
f 543/531 573/561 537/525
f 573/561 536/524 537/525
f 573/561 574/562 536/524
f 574/562 575/563 536/524
f 536/524 575/563 535/523
f 535/523 575/563 576/564
f 534/522 535/523 576/564
f 577/565 534/522 576/564
f 534/522 577/565 578/566
f 533/521 534/522 578/566
f 578/566 579/567 533/521
f 579/567 578/566 577/565
f 577/565 580/568 579/567
f 580/568 577/565 576/564
f 576/564 575/563 580/568
f 574/562 581/569 575/563
f 574/562 582/570 581/569
f 584/540 585/538 583/539
f 583/539 585/538 586/536
f 585/538 587/537 586/536
f 588/547 587/537 585/538
f 586/536 587/537 589/533
f 590/530 589/533 587/537
f 590/530 587/537 591/529
f 592/526 590/530 591/529
f 592/526 591/529 593/527
f 593/527 591/529 594/528
f 594/528 595/514 593/527
f 596/515 593/527 595/514
f 593/527 596/515 592/526
f 597/516 592/526 596/515
f 597/516 596/515 598/498
f 596/515 595/514 598/498
f 595/514 599/513 598/498
f 598/498 599/513 600/495
f 601/497 598/498 600/495
f 602/499 598/498 601/497
f 602/499 597/516 598/498
f 597/516 602/499 603/517
f 603/517 602/499 604/518
f 605/519 604/518 602/499
f 602/499 606/520 605/519
f 607/500 602/499 601/497
f 602/499 607/500 608/501
f 608/501 607/500 609/502
f 608/501 609/502 610/503
f 610/503 609/502 611/504
f 610/503 611/504 612/505
f 610/503 612/505 613/506
f 589/533 614/535 586/536
f 614/535 589/533 615/534
f 616/532 615/534 589/533
f 616/532 589/533 590/530
f 617/531 616/532 590/530
f 618/549 616/532 617/531
f 619/548 616/532 618/549
f 615/534 616/532 619/548
f 619/548 620/554 615/534
f 620/554 619/548 621/553
f 621/553 619/548 622/552
f 622/552 619/548 618/549
f 618/549 623/551 622/552
f 618/549 624/550 623/551
f 617/531 624/550 618/549
f 625/525 617/531 590/530
f 592/526 625/525 590/530
f 592/526 597/516 625/525
f 625/525 597/516 603/517
f 625/525 603/517 626/524
f 626/524 627/561 625/525
f 627/561 617/531 625/525
f 628/562 627/561 626/524
f 629/563 628/562 626/524
f 630/569 628/562 629/563
f 631/570 628/562 630/569
f 586/536 614/535 632/546
f 586/536 632/546 583/539
f 633/545 583/539 632/546
f 583/539 633/545 634/544
f 634/544 635/541 583/539
f 584/540 583/539 635/541
f 636/542 584/540 635/541
f 635/541 637/543 636/542
f 635/541 634/544 637/543
f 601/497 600/495 638/496
f 638/496 600/495 639/493
f 638/496 639/493 640/512
f 640/512 639/493 641/490
f 639/493 642/492 641/490
f 643/491 641/490 642/492
f 643/491 644/507 641/490
f 645/508 644/507 643/491
f 644/507 645/508 646/509
f 647/510 646/509 645/508
f 646/509 647/510 648/511
f 646/509 648/511 644/507
f 648/511 641/490 644/507
f 640/512 641/490 648/511
f 642/492 639/493 649/494
f 600/495 649/494 639/493
f 599/513 649/494 600/495
f 621/553 650/555 620/554
f 650/555 621/553 651/556
f 652/557 651/556 621/553
f 652/557 621/553 622/552
f 653/558 652/557 622/552
f 622/552 654/559 653/558
f 622/552 623/551 654/559
f 655/560 653/558 654/559
f 653/558 655/560 652/557
f 651/556 652/557 655/560
f 604/518 605/519 656/521
f 656/521 657/522 604/518
f 658/523 604/518 657/522
f 603/517 604/518 658/523
f 626/524 603/517 658/523
f 629/563 626/524 658/523
f 629/563 658/523 659/564
f 658/523 657/522 659/564
f 657/522 660/565 659/564
f 660/565 657/522 661/566
f 657/522 656/521 661/566
f 662/567 661/566 656/521
f 661/566 662/567 660/565
f 663/568 660/565 662/567
f 660/565 663/568 659/564
f 629/563 659/564 663/568
f 665/571 666/572 664/573
f 667/574 664/573 666/572
f 664/573 667/574 668/575
f 668/575 669/576 664/573
f 669/576 668/575 670/577
f 668/575 671/578 670/577
f 671/578 668/575 667/574
f 667/574 672/579 671/578
f 672/579 667/574 666/572
f 666/572 673/580 672/579
f 673/580 666/572 674/581
f 665/571 674/581 666/572
f 674/581 675/582 673/580
f 676/583 673/580 675/582
f 673/580 676/583 677/584
f 677/584 678/585 673/580
f 678/585 677/584 679/586
f 679/586 680/587 678/585
f 681/588 678/585 680/587
f 678/585 681/588 682/589
f 682/589 673/580 678/585
f 673/580 682/589 683/590
f 673/580 683/590 672/579
f 684/591 672/579 683/590
f 672/579 684/591 685/592
f 685/592 671/578 672/579
f 685/592 686/593 671/578
f 686/593 670/577 671/578
f 670/577 686/593 687/594
f 687/594 688/595 670/577
f 688/595 689/596 670/577
f 689/596 688/595 690/597
f 691/598 690/597 688/595
f 688/595 687/594 691/598
f 692/599 691/598 687/594
f 691/598 692/599 693/600
f 690/597 691/598 693/600
f 693/600 694/601 690/597
f 695/602 694/601 693/600
f 693/600 696/603 695/602
f 696/603 693/600 692/599
f 697/604 696/603 692/599
f 692/599 698/605 697/604
f 698/605 692/599 699/606
f 687/594 699/606 692/599
f 699/606 687/594 686/593
f 686/593 700/607 699/606
f 686/593 685/592 700/607
f 701/608 700/607 685/592
f 700/607 701/608 699/606
f 702/609 699/606 701/608
f 685/592 702/609 701/608
f 685/592 703/610 702/609
f 703/610 685/592 684/591
f 684/591 704/611 703/610
f 705/612 704/611 684/591
f 684/591 706/613 705/612
f 683/590 706/613 684/591
f 706/613 683/590 682/589
f 682/589 707/614 706/613
f 707/614 682/589 681/588
f 681/588 708/615 707/614
f 708/615 681/588 709/616
f 680/587 709/616 681/588
f 709/616 710/617 708/615
f 711/618 708/615 710/617
f 710/617 712/619 711/618
f 713/620 711/618 712/619
f 714/621 713/620 712/619
f 711/618 713/620 715/622
f 715/622 716/623 711/618
f 708/615 711/618 716/623
f 716/623 707/614 708/615
f 707/614 716/623 717/624
f 716/623 715/622 717/624
f 717/624 715/622 718/625
f 718/625 719/626 717/624
f 720/627 717/624 719/626
f 717/624 720/627 707/614
f 720/627 706/613 707/614
f 721/628 706/613 720/627
f 721/628 705/612 706/613
f 721/628 722/629 705/612
f 722/629 704/611 705/612
f 722/629 723/630 704/611
f 704/611 723/630 724/631
f 724/631 703/610 704/611
f 702/609 703/610 724/631
f 702/609 725/632 699/606
f 699/606 725/632 698/605
f 726/633 698/605 725/632
f 726/633 727/634 698/605
f 728/635 698/605 727/634
f 728/635 697/604 698/605
f 697/604 728/635 729/636
f 729/636 696/603 697/604
f 696/603 729/636 730/637
f 730/637 731/638 696/603
f 731/638 730/637 732/639
f 733/640 732/639 730/637
f 730/637 734/641 733/640
f 734/641 730/637 729/636
f 729/636 735/642 734/641
f 735/642 729/636 728/635
f 728/635 736/643 735/642
f 736/643 737/644 735/642
f 738/645 735/642 737/644
f 735/642 738/645 739/646
f 739/646 734/641 735/642
f 734/641 739/646 740/647
f 740/647 733/640 734/641
f 741/648 740/647 739/646
f 739/646 742/649 741/648
f 742/649 739/646 738/645
f 738/645 743/650 742/649
f 743/650 738/645 737/644
f 743/650 737/644 744/651
f 745/652 744/651 737/644
f 737/644 736/643 745/652
f 746/653 745/652 736/643
f 736/643 747/654 746/653
f 747/654 736/643 748/655
f 728/635 748/655 736/643
f 728/635 727/634 748/655
f 727/634 749/656 748/655
f 727/634 726/633 749/656
f 726/633 750/657 749/656
f 750/657 726/633 751/658
f 725/632 751/658 726/633
f 725/632 702/609 751/658
f 752/659 696/603 731/638
f 696/603 752/659 753/660
f 753/660 695/602 696/603
f 754/661 753/660 752/659
f 755/662 754/661 752/659
f 675/582 756/663 676/583
f 756/663 757/664 676/583
f 758/665 741/648 742/649
f 742/649 759/666 758/665
f 759/666 742/649 743/650
f 759/666 760/667 758/665
f 719/626 761/668 720/627
f 762/669 720/627 761/668
f 720/627 762/669 721/628
f 721/628 762/669 763/670
f 721/628 763/670 722/629
f 763/670 762/669 764/671
f 765/672 764/671 762/669
f 761/668 765/672 762/669
f 766/673 746/653 747/654
f 767/674 766/673 747/654
f 747/654 768/675 767/674
f 747/654 748/655 768/675
f 768/675 748/655 749/656
f 770/676 771/677 769/678
f 770/676 772/679 771/677
f 772/679 773/680 771/677
f 772/679 774/681 773/680
f 774/681 775/682 773/680
f 776/683 775/682 774/681
f 777/684 775/682 776/683
f 777/684 776/683 778/685
f 779/686 777/684 778/685
f 780/687 778/685 776/683
f 776/683 781/688 780/687
f 781/688 776/683 774/681
f 774/681 782/689 781/688
f 774/681 783/690 782/689
f 774/681 784/691 783/690
f 774/681 785/692 784/691
f 786/693 785/692 774/681
f 774/681 772/679 786/693
f 786/693 772/679 787/694
f 787/694 772/679 770/676
f 787/694 770/676 788/695
f 770/676 769/678 788/695
f 789/696 788/695 769/678
f 769/678 790/697 789/696
f 790/697 791/698 789/696
f 792/699 789/696 791/698
f 789/696 792/699 793/700
f 788/695 789/696 793/700
f 788/695 793/700 794/701
f 788/695 794/701 795/702
f 788/695 795/702 796/703
f 797/704 788/695 796/703
f 788/695 797/704 787/694
f 787/694 797/704 786/693
f 785/692 786/693 797/704
f 785/692 797/704 798/705
f 798/705 797/704 799/706
f 799/706 797/704 796/703
f 800/707 799/706 796/703
f 798/705 799/706 800/707
f 798/705 800/707 801/708
f 802/709 798/705 801/708
f 803/710 798/705 802/709
f 803/710 785/692 798/705
f 785/692 803/710 784/691
f 784/691 803/710 802/709
f 805/679 806/676 804/677
f 807/678 804/677 806/676
f 807/678 806/676 808/695
f 808/695 809/696 807/678
f 810/697 807/678 809/696
f 811/698 810/697 809/696
f 809/696 812/699 811/698
f 812/699 809/696 813/700
f 809/696 808/695 813/700
f 813/700 808/695 814/701
f 814/701 808/695 815/702
f 815/702 808/695 816/703
f 808/695 817/704 816/703
f 817/704 808/695 818/694
f 806/676 818/694 808/695
f 805/679 818/694 806/676
f 805/679 819/693 818/694
f 817/704 818/694 819/693
f 819/693 820/692 817/704
f 820/692 819/693 821/681
f 805/679 821/681 819/693
f 821/681 805/679 822/680
f 822/680 805/679 804/677
f 823/682 821/681 822/680
f 823/682 824/683 821/681
f 823/682 825/684 824/683
f 824/683 825/684 826/685
f 825/684 827/686 826/685
f 826/685 828/711 824/683
f 829/688 824/683 828/711
f 824/683 829/688 821/681
f 830/689 821/681 829/688
f 831/690 821/681 830/689
f 832/691 821/681 831/690
f 820/692 821/681 832/691
f 833/710 820/692 832/691
f 820/692 833/710 834/705
f 817/704 820/692 834/705
f 817/704 834/705 835/706
f 817/704 835/706 816/703
f 835/706 836/707 816/703
f 835/706 834/705 836/707
f 836/707 834/705 837/708
f 834/705 838/709 837/708
f 834/705 833/710 838/709
f 833/710 832/691 838/709
usemtl R6RLightWinterHead
f 840/712 841/713 839/714
f 840/712 839/714 842/715
f 843/716 842/715 839/714
f 843/716 844/717 842/715
f 845/718 842/715 844/717
f 846/719 845/718 844/717
f 846/719 844/717 847/720
f 847/720 844/717 843/716
f 848/721 847/720 843/716
f 849/722 847/720 848/721
f 849/722 850/723 847/720
f 850/723 851/724 847/720
f 852/725 851/724 850/723
f 851/724 852/725 853/726
f 853/726 852/725 854/727
f 853/726 854/727 855/728
f 855/728 856/729 853/726
f 857/730 853/726 856/729
f 858/731 853/726 857/730
f 858/731 851/724 853/726
f 859/732 858/731 857/730
f 860/733 859/732 857/730
f 861/734 860/733 857/730
f 860/733 862/735 859/732
f 863/736 862/735 860/733
f 864/737 863/736 860/733
f 864/737 860/733 865/738
f 860/733 866/739 865/738
f 867/740 865/738 866/739
f 868/741 865/738 867/740
f 868/741 867/740 869/742
f 869/742 867/740 870/743
f 867/740 871/744 870/743
f 872/745 871/744 867/740
f 870/743 871/744 873/746
f 871/744 874/747 873/746
f 875/748 873/746 874/747
f 873/746 875/748 876/749
f 873/746 876/749 877/750
f 878/751 873/746 877/750
f 870/743 873/746 878/751
f 878/751 879/752 870/743
f 870/743 879/752 869/742
f 878/751 880/753 879/752
f 878/751 881/754 880/753
f 878/751 882/755 881/754
f 881/754 882/755 841/713
f 883/756 881/754 841/713
f 880/753 881/754 883/756
f 884/757 880/753 883/756
f 884/757 883/756 885/758
f 886/759 884/757 885/758
f 885/758 887/760 886/759
f 886/759 887/760 888/761
f 888/761 887/760 889/762
f 889/762 887/760 890/763
f 891/764 889/762 890/763
f 891/764 890/763 845/718
f 890/763 842/715 845/718
f 890/763 892/765 842/715
f 890/763 887/760 892/765
f 892/765 887/760 885/758
f 883/756 892/765 885/758
f 883/756 841/713 892/765
f 841/713 893/766 892/765
f 842/715 892/765 893/766
f 840/712 842/715 893/766
f 840/712 893/766 841/713
f 894/767 841/713 882/755
f 894/767 839/714 841/713
f 894/767 895/768 839/714
f 843/716 839/714 895/768
f 848/721 843/716 895/768
f 894/767 896/769 895/768
f 897/770 896/769 894/767
f 897/770 894/767 882/755
f 878/751 897/770 882/755
f 878/751 877/750 897/770
f 877/750 898/771 897/770
f 877/750 899/772 898/771
f 876/749 899/772 877/750
f 899/772 900/773 898/771
f 898/771 900/773 897/770
f 900/773 896/769 897/770
f 901/774 864/737 865/738
f 868/741 901/774 865/738
f 846/719 862/735 902/775
f 902/775 862/735 863/736
f 846/719 902/775 903/776
f 846/719 903/776 845/718
f 903/776 891/764 845/718
f 854/727 852/725 904/777
f 852/725 850/723 904/777
f 904/777 850/723 849/722
f 905/778 846/719 847/720
f 851/724 905/778 847/720
f 907/779 908/780 906/781
f 909/782 907/779 906/781
f 909/782 906/781 910/783
f 911/784 909/782 910/783
f 909/782 911/784 912/785
f 907/779 909/782 912/785
f 913/786 912/785 911/784
f 911/784 914/787 913/786
f 911/784 910/783 914/787
f 914/787 910/783 915/788
f 915/788 916/789 914/787
f 913/786 914/787 916/789
f 916/789 917/790 913/786
f 918/791 913/786 917/790
f 917/790 919/792 918/791
f 919/792 917/790 916/789
f 915/788 919/792 916/789
f 919/792 915/788 920/793
f 920/793 921/794 919/792
f 918/791 919/792 921/794
f 910/783 918/791 921/794
f 918/791 910/783 922/795
f 910/783 923/796 922/795
f 908/780 922/795 923/796
f 923/796 906/781 908/780
f 906/781 923/796 910/783
f 915/788 910/783 924/797
f 921/794 924/797 910/783
f 924/797 921/794 925/798
f 925/798 926/799 924/797
f 920/793 924/797 926/799
f 924/797 920/793 915/788
f 921/794 920/793 927/800
f 927/800 925/798 921/794
f 925/798 927/800 928/801
f 928/801 929/802 925/798
f 929/802 930/803 925/798
f 926/799 925/798 930/803
f 930/803 931/804 926/799
f 927/800 926/799 931/804
f 926/799 927/800 920/793
f 931/804 928/801 927/800
f 928/801 931/804 932/805
f 933/806 932/805 931/804
f 931/804 930/803 933/806
f 934/807 933/806 930/803
f 929/802 934/807 930/803
f 934/807 929/802 935/808
f 929/802 928/801 935/808
f 932/805 935/808 928/801
f 935/808 932/805 936/809
f 937/810 936/809 932/805
f 932/805 933/806 937/810
f 938/811 937/810 933/806
f 934/807 938/811 933/806
f 938/811 934/807 939/812
f 938/811 939/812 936/809
f 936/809 939/812 935/808
f 934/807 935/808 939/812
f 937/810 938/811 936/809
usemtl R6RGogglesFB
f 996/813 997/814 995/815
f 998/816 997/814 996/813
f 998/816 999/817 997/814
f 1000/816 997/814 999/817
f 1000/816 1001/813 997/814
f 1001/813 995/815 997/814
f 995/815 1001/813 1002/818
f 1003/819 1002/818 1001/813
f 1000/816 1003/819 1001/813
f 1003/819 1000/816 1004/820
f 1003/819 1004/820 1005/821
f 1005/821 1006/822 1003/819
f 1002/818 1003/819 1006/822
f 1006/822 1005/821 1007/823
f 1008/824 1007/823 1005/821
f 1005/821 1004/820 1008/824
f 1004/820 1009/825 1008/824
f 1010/826 1008/824 1009/825
f 1007/823 1008/824 1010/826
f 998/816 996/813 1011/819
f 1011/819 996/813 1012/818
f 995/815 1012/818 996/813
f 1012/818 1013/822 1011/819
f 1014/821 1011/819 1013/822
f 1011/819 1014/821 1015/820
f 1011/819 1015/820 998/816
f 998/816 1015/820 1016/827
f 998/816 1016/827 999/817
f 999/817 1016/827 1017/828
f 999/817 1017/828 1018/827
f 1000/816 999/817 1018/827
f 1000/816 1018/827 1004/820
f 1019/829 1004/820 1018/827
f 1019/829 1009/825 1004/820
f 1009/825 1019/829 1020/830
f 1020/830 1019/829 1021/831
f 1018/827 1021/831 1019/829
f 1021/831 1018/827 1017/828
f 1022/831 1017/828 1016/827
f 1016/827 1023/829 1022/831
f 1023/829 1016/827 1015/820
f 1023/829 1015/820 1024/825
f 1015/820 1025/824 1024/825
f 1014/821 1025/824 1015/820
f 1025/824 1014/821 1026/823
f 1013/822 1026/823 1014/821
f 1026/823 1027/826 1025/824
f 1027/826 1024/825 1025/824
f 1024/825 1028/830 1023/829
f 1028/830 1022/831 1023/829
f 1030/814 1031/815 1029/813
f 1031/815 1030/814 1032/813
f 1032/813 1033/818 1031/815
f 1033/818 1032/813 1034/819
f 1034/819 1035/822 1033/818
f 1035/822 1034/819 1036/821
f 1036/821 1037/823 1035/822
f 1037/823 1036/821 1038/824
f 1038/824 1039/826 1037/823
f 1038/824 1040/825 1039/826
f 1040/825 1038/824 1041/820
f 1040/825 1041/820 1042/829
f 1042/829 1043/830 1040/825
f 1042/829 1044/831 1043/830
f 1044/831 1042/829 1045/827
f 1045/827 1046/828 1044/831
f 1046/828 1045/827 1047/817
f 1048/827 1046/828 1047/817
f 1046/828 1048/827 1049/831
f 1050/829 1049/831 1048/827
f 1049/831 1050/829 1051/830
f 1051/830 1050/829 1052/825
f 1053/820 1052/825 1050/829
f 1054/824 1052/825 1053/820
f 1052/825 1054/824 1055/826
f 1055/826 1054/824 1056/823
f 1057/821 1056/823 1054/824
f 1056/823 1057/821 1058/822
f 1059/819 1058/822 1057/821
f 1058/822 1059/819 1060/818
f 1029/813 1060/818 1059/819
f 1060/818 1029/813 1031/815
usemtl R6RFaceArnavisca
f 941/832 942/833 940/834
f 943/835 942/833 941/832
f 943/835 941/832 944/836
f 943/835 944/836 945/837
f 946/838 945/837 944/836
f 946/838 944/836 947/839
f 946/838 947/839 948/840
f 948/840 947/839 949/841
f 949/841 950/842 948/840
f 951/843 950/842 949/841
f 951/843 952/844 950/842
f 950/842 952/844 953/845
f 950/842 953/845 948/840
f 953/845 954/846 948/840
f 954/846 946/838 948/840
f 954/846 955/847 946/838
f 955/847 956/848 946/838
f 956/848 945/837 946/838
f 956/848 943/835 945/837
f 957/849 943/835 956/848
f 958/850 943/835 957/849
f 958/850 942/833 943/835
f 959/851 942/833 958/850
f 960/852 942/833 959/851
f 940/834 942/833 960/852
f 961/853 940/834 960/852
f 961/853 960/852 962/854
f 960/852 959/851 962/854
f 959/851 963/855 962/854
f 964/856 962/854 963/855
f 965/857 964/856 963/855
f 966/858 964/856 965/857
f 966/858 967/859 964/856
f 967/859 966/858 956/848
f 966/858 957/849 956/848
f 968/860 957/849 966/858
f 968/860 969/861 957/849
f 957/849 969/861 958/850
f 958/850 969/861 959/851
f 955/847 954/846 970/862
f 954/846 953/845 970/862
f 971/863 955/847 970/862
f 971/863 972/864 955/847
f 972/864 956/848 955/847
f 967/859 956/848 972/864
f 972/864 973/865 967/859
f 972/864 974/866 973/865
f 974/866 975/867 973/865
f 973/865 975/867 952/844
f 953/845 952/844 975/867
f 951/843 976/868 952/844
f 952/844 976/868 977/869
f 952/844 977/869 973/865
f 978/870 973/865 977/869
f 967/859 973/865 978/870
f 978/870 979/871 967/859
f 967/859 979/871 964/856
f 964/856 979/871 980/872
f 962/854 964/856 980/872
f 962/854 980/872 981/873
f 982/874 962/854 981/873
f 982/874 961/853 962/854
f 984/875 985/876 983/877
f 985/876 984/875 986/878
f 986/878 984/875 987/879
f 983/877 985/876 988/880
f 990/878 991/879 989/875
f 992/876 990/878 989/875
f 989/875 993/877 992/876
f 993/877 994/880 992/876
usemtl R6armpatch
f 1062/881 1063/882 1061/883
f 1062/881 1064/884 1063/882
f 1066/885 1067/886 1065/887
f 1065/887 1067/886 1068/888
